\usetikzlibrary{calc,trees,positioning,arrows,chains,shapes.geometric, decorations.pathreplacing,decorations.pathmorphing,shapes, matrix,shapes.symbols,arrows.meta}

\tikzstyle{fleche}=[>=stealth', thick]
\tikzstyle{cercle}=[circle, draw]

\begin{tikzpicture} 
%noeuds
	\node [] (C1) at (0,4) {$(\partialnonincl,\strictemb,\strictlycontains)$};
	\node [] (C2) at (6,4) {$(\partialnonincl,\strictemb,\softlycontains)$};
	\node [] (C3) at (0,0) {$(\partialnonincl,\softemb,\strictlycontains)$};
	\node [] (C4) at (6,0) {$(\partialnonincl,\softemb,\softlycontains)$};

	\node [] (C5) at (-2,2) {$(\totalnonincl,\strictemb,\strictlycontains)$};
	\node [] (C6) at (4,2) {$(\totalnonincl,\strictemb,\softlycontains)$};
	\node [] (C7) at (-2,-2) {$(\totalnonincl,\softemb,\strictlycontains)$};
	\node [] (C8) at (4,-2) {$(\totalnonincl,\softemb,\softlycontains)$};

%relations
\draw[->, fleche] (C2) to (C1);
\draw[->, fleche] (C4) to (C3);
\draw[->, fleche] (C3) to (C1);
\draw[->, fleche] (C4) to (C2);

\draw[->, fleche] (C6) to (C5);
\draw[->, fleche] (C8) to (C7);
\draw[<->, fleche] (C7) to (C5);
\draw[<->, fleche] (C8) to (C6);

\draw[->, fleche] (C1) to (C5);
\draw[->, fleche] (C3) to (C7);
\draw[->, fleche] (C2) to (C6);
\draw[->, fleche] (C4) to (C8);
\end{tikzpicture}