method,len,size,ql,it,fp,f,mg,time,MaxRSS,NbPat,NbPatNeg
ensp,30,500,15,1,10,0.2,0,16.82,99276,10602,10602
censp,30,500,15,1,0,0.2,10,0.21,4428,38,19
ensp,30,500,15,2,10,0.2,0,16.49,99916,10616,10616
censp,30,500,15,2,0,0.2,10,0.2,4400,31,13
ensp,30,500,15,3,10,0.2,0,16.14,98200,10638,10638
censp,30,500,15,3,0,0.2,10,0.32,4424,99,79
ensp,30,500,15,4,10,0.2,0,16.81,101552,10772,10772
censp,30,500,15,4,0,0.2,10,0.32,4456,102,85
ensp,30,500,15,5,10,0.2,0,16.27,98220,10624,10624
censp,30,500,15,5,0,0.2,10,0.17,4436,23,6
ensp,30,500,15,6,10,0.2,0,17.04,103152,10713,10713
censp,30,500,15,6,0,0.2,10,0.57,4408,230,207
ensp,30,500,15,7,10,0.2,0,16.33,98244,10571,10571
censp,30,500,15,7,0,0.2,10,0.16,4328,16,0
ensp,30,500,15,8,10,0.2,0,16.44,99200,10613,10613
censp,30,500,15,8,0,0.2,10,0.17,4368,20,3
ensp,30,500,15,9,10,0.2,0,16.24,98032,10589,10589
censp,30,500,15,9,0,0.2,10,0.16,4368,16,0
ensp,30,500,15,10,10,0.2,0,16.85,101884,10782,10782
censp,30,500,15,10,0,0.2,10,0.58,4420,229,205
ensp,30,500,20,1,10,0.2,0,7.33,46588,5558,5558
censp,30,500,20,1,0,0.2,10,0.17,4344,21,0
ensp,30,500,20,2,10,0.2,0,5.93,40116,4501,4501
censp,30,500,20,2,0,0.2,10,0.17,4408,21,0
ensp,30,500,20,3,10,0.2,0,8.44,51808,6414,6414
censp,30,500,20,3,0,0.2,10,0.18,4348,21,0
ensp,30,500,20,4,10,0.2,0,9.36,56256,7167,7167
censp,30,500,20,4,0,0.2,10,0.17,4416,21,0
ensp,30,500,20,5,10,0.2,0,6.91,45216,5281,5281
censp,30,500,20,5,0,0.2,10,0.18,4388,21,0
ensp,30,500,20,6,10,0.2,0,6.75,44136,5197,5197
censp,30,500,20,6,0,0.2,10,0.18,4388,21,0
ensp,30,500,20,7,10,0.2,0,7.94,49952,6133,6133
censp,30,500,20,7,0,0.2,10,0.18,4420,21,0
ensp,30,500,20,8,10,0.2,0,8,49676,6112,6112
censp,30,500,20,8,0,0.2,10,0.18,4364,21,0
ensp,30,500,20,9,10,0.2,0,6.18,41264,4716,4716
censp,30,500,20,9,0,0.2,10,0.18,4352,21,0
ensp,30,500,20,10,10,0.2,0,8.38,52080,6467,6467
censp,30,500,20,10,0,0.2,10,0.18,4348,21,0
ensp,30,500,30,1,10,0.2,0,1.42,23476,1830,1830
censp,30,500,30,1,0,0.2,10,0.21,4356,31,0
ensp,30,500,30,2,10,0.2,0,1.48,23704,1826,1826
censp,30,500,30,2,0,0.2,10,0.21,4408,31,0
ensp,30,500,30,3,10,0.2,0,1.45,23168,1806,1806
censp,30,500,30,3,0,0.2,10,0.21,4404,31,0
ensp,30,500,30,4,10,0.2,0,1.42,23372,1803,1803
censp,30,500,30,4,0,0.2,10,0.21,4320,31,0
ensp,30,500,30,5,10,0.2,0,1.42,23404,1824,1824
censp,30,500,30,5,0,0.2,10,0.22,4420,31,0
ensp,30,500,30,6,10,0.2,0,1.4,23336,1816,1816
censp,30,500,30,6,0,0.2,10,0.2,4380,31,0
ensp,30,500,30,7,10,0.2,0,1.41,23148,1814,1814
censp,30,500,30,7,0,0.2,10,0.21,4512,31,0
ensp,30,500,30,8,10,0.2,0,1.41,23252,1814,1814
censp,30,500,30,8,0,0.2,10,0.21,4384,31,0
ensp,30,500,30,9,10,0.2,0,1.36,23340,1822,1822
censp,30,500,30,9,0,0.2,10,0.21,4344,31,0
ensp,30,500,30,10,10,0.2,0,1.42,23468,1832,1832
censp,30,500,30,10,0,0.2,10,0.21,4344,31,0
ensp,30,500,40,1,10,0.2,0,0.47,8132,294,294
censp,30,500,40,1,0,0.2,10,0.21,4388,41,0
ensp,30,500,40,2,10,0.2,0,0.48,7992,292,292
censp,30,500,40,2,0,0.2,10,0.22,4368,41,0
ensp,30,500,40,3,10,0.2,0,0.47,8136,308,308
censp,30,500,40,3,0,0.2,10,0.22,4380,41,0
ensp,30,500,40,4,10,0.2,0,0.5,8296,326,326
censp,30,500,40,4,0,0.2,10,0.23,4396,41,0
ensp,30,500,40,5,10,0.2,0,0.53,8764,362,362
censp,30,500,40,5,0,0.2,10,0.23,4452,41,0
ensp,30,500,40,6,10,0.2,0,0.44,7260,188,188
censp,30,500,40,6,0,0.2,10,0.22,4412,41,0
ensp,30,500,40,7,10,0.2,0,0.46,7792,256,256
censp,30,500,40,7,0,0.2,10,0.22,4332,41,0
ensp,30,500,40,8,10,0.2,0,0.5,8692,344,344
censp,30,500,40,8,0,0.2,10,0.22,4332,41,0
ensp,30,500,40,9,10,0.2,0,0.42,7372,206,206
censp,30,500,40,9,0,0.2,10,0.22,4412,41,0
ensp,30,500,40,10,10,0.2,0,0.49,8200,314,314
censp,30,500,40,10,0,0.2,10,0.22,4416,41,0
ensp,30,500,60,1,10,0.2,0,0.22,6132,64,64
censp,30,500,60,1,0,0.2,10,0.22,4368,61,0
ensp,30,500,60,2,10,0.2,0,0.23,6244,78,78
censp,30,500,60,2,0,0.2,10,0.22,4404,61,0
ensp,30,500,60,3,10,0.2,0,0.24,6164,62,62
censp,30,500,60,3,0,0.2,10,0.17,4344,61,0
ensp,30,500,60,4,10,0.2,0,0.23,6240,66,66
censp,30,500,60,4,0,0.2,10,0.21,4368,61,0
ensp,30,500,60,5,10,0.2,0,0.23,6292,78,78
censp,30,500,60,5,0,0.2,10,0.22,4456,61,0
ensp,30,500,60,6,10,0.2,0,0.23,6124,60,60
censp,30,500,60,6,0,0.2,10,0.22,4372,61,0
ensp,30,500,60,7,10,0.2,0,0.23,6232,68,68
censp,30,500,60,7,0,0.2,10,0.22,4516,61,0
ensp,30,500,60,8,10,0.2,0,0.23,6232,66,66
censp,30,500,60,8,0,0.2,10,0.19,4492,61,0
ensp,30,500,60,9,10,0.2,0,0.18,6268,66,66
censp,30,500,60,9,0,0.2,10,0.21,4456,61,0
ensp,30,500,60,10,10,0.2,0,0.18,6116,60,60
censp,30,500,60,10,0,0.2,10,0.21,4328,61,0
ensp,30,500,80,1,10,0.2,0,0.2,6216,80,80
censp,30,500,80,1,0,0.2,10,0.25,4392,81,0
ensp,30,500,80,2,10,0.2,0,0.25,6284,80,80
censp,30,500,80,2,0,0.2,10,0.24,4472,81,0
ensp,30,500,80,3,10,0.2,0,0.2,6276,80,80
censp,30,500,80,3,0,0.2,10,0.23,4464,81,0
ensp,30,500,80,4,10,0.2,0,0.2,6172,80,80
censp,30,500,80,4,0,0.2,10,0.23,4312,81,0
ensp,30,500,80,5,10,0.2,0,0.24,6204,80,80
censp,30,500,80,5,0,0.2,10,0.23,4384,81,0
ensp,30,500,80,6,10,0.2,0,0.24,6320,80,80
censp,30,500,80,6,0,0.2,10,0.21,4368,81,0
ensp,30,500,80,7,10,0.2,0,0.24,6280,80,80
censp,30,500,80,7,0,0.2,10,0.23,4348,81,0
ensp,30,500,80,8,10,0.2,0,0.25,6276,80,80
censp,30,500,80,8,0,0.2,10,0.23,4476,81,0
ensp,30,500,80,9,10,0.2,0,0.24,6280,80,80
censp,30,500,80,9,0,0.2,10,0.23,4416,81,0
ensp,30,500,80,10,10,0.2,0,0.24,6280,80,80
censp,30,500,80,10,0,0.2,10,0.23,4360,81,0
ensp,30,500,100,1,10,0.2,0,0.22,6352,100,100
censp,30,500,100,1,0,0.2,10,0.25,4368,101,0
ensp,30,500,100,2,10,0.2,0,0.21,6296,100,100
censp,30,500,100,2,0,0.2,10,0.25,4408,101,0
ensp,30,500,100,3,10,0.2,0,0.26,6272,100,100
censp,30,500,100,3,0,0.2,10,0.25,4392,101,0
ensp,30,500,100,4,10,0.2,0,0.26,6452,100,100
censp,30,500,100,4,0,0.2,10,0.25,4400,101,0
ensp,30,500,100,5,10,0.2,0,0.28,6344,100,100
censp,30,500,100,5,0,0.2,10,0.26,4364,101,0
ensp,30,500,100,6,10,0.2,0,0.26,6308,100,100
censp,30,500,100,6,0,0.2,10,0.25,4340,101,0
ensp,30,500,100,7,10,0.2,0,0.25,6272,99,99
censp,30,500,100,7,0,0.2,10,0.2,4388,100,0
ensp,30,500,100,8,10,0.2,0,0.21,6320,99,99
censp,30,500,100,8,0,0.2,10,0.2,4400,100,0
ensp,30,500,100,9,10,0.2,0,0.26,6392,100,100
censp,30,500,100,9,0,0.2,10,0.22,4404,101,0
ensp,30,500,100,10,10,0.2,0,0.26,6372,100,100
censp,30,500,100,10,0,0.2,10,0.24,4360,101,0
ensp,30,500,120,1,10,0.2,0,0.29,6096,93,93
censp,30,500,120,1,0,0.2,10,0.19,4400,94,0
ensp,30,500,120,2,10,0.2,0,0.24,5888,87,87
censp,30,500,120,2,0,0.2,10,0.19,4344,88,0
ensp,30,500,120,3,10,0.2,0,0.27,6076,96,96
censp,30,500,120,3,0,0.2,10,0.25,4360,97,0
ensp,30,500,120,4,10,0.2,0,0.25,6024,94,94
censp,30,500,120,4,0,0.2,10,0.23,4400,95,0
ensp,30,500,120,5,10,0.2,0,0.25,6024,89,89
censp,30,500,120,5,0,0.2,10,0.23,4348,90,0
ensp,30,500,120,6,10,0.2,0,0.25,6084,93,93
censp,30,500,120,6,0,0.2,10,0.24,4400,94,0
ensp,30,500,120,7,10,0.2,0,0.26,6088,99,99
censp,30,500,120,7,0,0.2,10,0.25,4376,100,0
ensp,30,500,120,8,10,0.2,0,0.2,5972,90,90
censp,30,500,120,8,0,0.2,10,0.19,4404,91,0
ensp,30,500,120,9,10,0.2,0,0.26,6136,93,93
censp,30,500,120,9,0,0.2,10,0.23,4412,94,0
ensp,30,500,120,10,10,0.2,0,0.24,5872,84,84
censp,30,500,120,10,0,0.2,10,0.23,4388,85,0
ensp,30,500,140,1,10,0.2,0,0.17,5096,37,37
censp,30,500,140,1,0,0.2,10,0.17,4448,38,0
ensp,30,500,140,2,10,0.2,0,0.17,5152,38,38
censp,30,500,140,2,0,0.2,10,0.17,4408,39,0
ensp,30,500,140,3,10,0.2,0,0.17,5008,34,34
censp,30,500,140,3,0,0.2,10,0.16,4408,35,0
ensp,30,500,140,4,10,0.2,0,0.15,4912,29,29
censp,30,500,140,4,0,0.2,10,0.11,4396,30,0
ensp,30,500,140,5,10,0.2,0,0.15,5120,35,35
censp,30,500,140,5,0,0.2,10,0.17,4356,36,0
ensp,30,500,140,6,10,0.2,0,0.16,4960,33,33
censp,30,500,140,6,0,0.2,10,0.17,4320,34,0
ensp,30,500,140,7,10,0.2,0,0.17,5064,36,36
censp,30,500,140,7,0,0.2,10,0.17,4448,37,0
ensp,30,500,140,8,10,0.2,0,0.15,5052,31,31
censp,30,500,140,8,0,0.2,10,0.16,4352,32,0
ensp,30,500,140,9,10,0.2,0,0.15,4976,32,32
censp,30,500,140,9,0,0.2,10,0.11,4456,33,0
ensp,30,500,140,10,10,0.2,0,0.12,5036,37,37
censp,30,500,140,10,0,0.2,10,0.2,4336,38,0
ensp,30,500,160,1,10,0.2,0,0.1,4772,14,14
censp,30,500,160,1,0,0.2,10,0.07,4368,15,0
ensp,30,500,160,2,10,0.2,0,0.11,4764,15,15
censp,30,500,160,2,0,0.2,10,0.11,4384,16,0
ensp,30,500,160,3,10,0.2,0,0.1,4636,12,12
censp,30,500,160,3,0,0.2,10,0.09,4488,13,0
ensp,30,500,160,4,10,0.2,0,0.11,4668,14,14
censp,30,500,160,4,0,0.2,10,0.12,4476,15,0
ensp,30,500,160,5,10,0.2,0,0.1,4776,14,14
censp,30,500,160,5,0,0.2,10,0.12,4348,15,0
ensp,30,500,160,6,10,0.2,0,0.1,4704,12,12
censp,30,500,160,6,0,0.2,10,0.11,4516,13,0
ensp,30,500,160,7,10,0.2,0,0.1,4760,13,13
censp,30,500,160,7,0,0.2,10,0.11,4356,14,0
ensp,30,500,160,8,10,0.2,0,0.07,4708,13,13
censp,30,500,160,8,0,0.2,10,0.1,4376,14,0
ensp,30,500,160,9,10,0.2,0,0.1,4760,13,13
censp,30,500,160,9,0,0.2,10,0.09,4348,14,0
ensp,30,500,160,10,10,0.2,0,0.1,4568,10,10
censp,30,500,160,10,0,0.2,10,0.07,4424,11,0
ensp,30,500,15,1,8,0.2,0,30.75,183584,17004,17004
ensp,30,500,15,2,8,0.2,0,24.16,151388,12609,12609
ensp,30,500,15,3,8,0.2,0,28.16,178016,14042,14042
ensp,30,500,15,4,8,0.2,0,23.11,148520,11572,11572
ensp,30,500,15,5,8,0.2,0,24.67,154220,12840,12840
ensp,30,500,15,6,8,0.2,0,26.74,166328,13798,13798
ensp,30,500,15,7,8,0.2,0,26.9,168380,13912,13912
ensp,30,500,15,8,8,0.2,0,30.15,186592,15226,15226
ensp,30,500,15,9,8,0.2,0,25.4,163484,12505,12505
ensp,30,500,15,10,8,0.2,0,25.77,155780,14103,14103
ensp,30,500,20,1,8,0.2,0,26.89,129752,22189,22189
ensp,30,500,20,2,8,0.2,0,25.8,127168,21256,21256
ensp,30,500,20,3,8,0.2,0,26.4,127020,21552,21552
ensp,30,500,20,4,8,0.2,0,25.45,126396,21427,21427
ensp,30,500,20,5,8,0.2,0,27.17,132604,22320,22320
ensp,30,500,20,6,8,0.2,0,25.2,122536,20576,20576
ensp,30,500,20,7,8,0.2,0,27.42,133980,22499,22499
ensp,30,500,20,8,8,0.2,0,28.14,133796,22833,22833
ensp,30,500,20,9,8,0.2,0,25.42,126388,21154,21154
ensp,30,500,20,10,8,0.2,0,25.44,124316,20430,20430
ensp,30,500,30,1,8,0.2,0,1.46,23556,1830,1830
ensp,30,500,30,2,8,0.2,0,1.39,23580,1830,1830
ensp,30,500,30,3,8,0.2,0,1.5,23936,1842,1842
ensp,30,500,30,4,8,0.2,0,1.48,23860,1854,1854
ensp,30,500,30,5,8,0.2,0,1.42,23604,1830,1830
ensp,30,500,30,6,8,0.2,0,1.49,23592,1834,1834
ensp,30,500,30,7,8,0.2,0,1.47,23816,1830,1830
ensp,30,500,30,8,8,0.2,0,1.46,23848,1831,1831
ensp,30,500,30,9,8,0.2,0,1.45,23708,1830,1830
ensp,30,500,30,10,8,0.2,0,1.44,23508,1832,1832
ensp,30,500,40,1,8,0.2,0,1.26,20256,2036,2036
ensp,30,500,40,2,8,0.2,0,1.38,20940,2134,2134
ensp,30,500,40,3,8,0.2,0,1.3,19724,1968,1968
ensp,30,500,40,4,8,0.2,0,1.27,19320,1876,1876
ensp,30,500,40,5,8,0.2,0,1.33,20288,2048,2048
ensp,30,500,40,6,8,0.2,0,1.42,21764,2272,2272
ensp,30,500,40,7,8,0.2,0,1.31,20604,2092,2092
ensp,30,500,40,8,8,0.2,0,1.42,22208,2304,2304
ensp,30,500,40,9,8,0.2,0,1.21,19216,1920,1920
ensp,30,500,40,10,8,0.2,0,1.33,21036,2202,2202
ensp,30,500,60,1,8,0.2,0,0.24,6264,82,82
ensp,30,500,60,2,8,0.2,0,0.28,6288,78,78
ensp,30,500,60,3,8,0.2,0,0.25,6404,88,88
ensp,30,500,60,4,8,0.2,0,0.2,6332,88,88
ensp,30,500,60,5,8,0.2,0,0.2,6272,88,88
ensp,30,500,60,6,8,0.2,0,0.21,6436,90,90
ensp,30,500,60,7,8,0.2,0,0.24,6376,84,84
ensp,30,500,60,8,8,0.2,0,0.26,6444,104,104
ensp,30,500,60,9,8,0.2,0,0.24,6372,86,86
ensp,30,500,60,10,8,0.2,0,0.24,6264,82,82
ensp,30,500,80,1,8,0.2,0,0.25,6528,100,100
ensp,30,500,80,2,8,0.2,0,0.24,6228,82,82
ensp,30,500,80,3,8,0.2,0,0.25,6344,85,85
ensp,30,500,80,4,8,0.2,0,0.21,6412,89,89
ensp,30,500,80,5,8,0.2,0,0.24,6328,83,83
ensp,30,500,80,6,8,0.2,0,0.28,6256,86,86
ensp,30,500,80,7,8,0.2,0,0.28,6216,80,80
ensp,30,500,80,8,8,0.2,0,0.25,6332,86,86
ensp,30,500,80,9,8,0.2,0,0.25,6468,94,94
ensp,30,500,80,10,8,0.2,0,0.25,6356,90,90
ensp,30,500,100,1,8,0.2,0,0.22,6376,100,100
ensp,30,500,100,2,8,0.2,0,0.26,6332,100,100
ensp,30,500,100,3,8,0.2,0,0.27,6420,102,102
ensp,30,500,100,4,8,0.2,0,0.25,6416,100,100
ensp,30,500,100,5,8,0.2,0,0.26,6320,100,100
ensp,30,500,100,6,8,0.2,0,0.22,6324,100,100
ensp,30,500,100,7,8,0.2,0,0.26,6368,102,102
ensp,30,500,100,8,8,0.2,0,0.23,6452,100,100
ensp,30,500,100,9,8,0.2,0,0.27,6452,100,100
ensp,30,500,100,10,8,0.2,0,0.26,6360,100,100
ensp,30,500,120,1,8,0.2,0,0.28,6380,119,119
ensp,30,500,120,2,8,0.2,0,0.23,6440,120,120
ensp,30,500,120,3,8,0.2,0,0.28,6420,120,120
ensp,30,500,120,4,8,0.2,0,0.27,6452,120,120
ensp,30,500,120,5,8,0.2,0,0.33,6404,120,120
ensp,30,500,120,6,8,0.2,0,0.29,6632,120,120
ensp,30,500,120,7,8,0.2,0,0.28,6472,119,119
ensp,30,500,120,8,8,0.2,0,0.24,6508,120,120
ensp,30,500,120,9,8,0.2,0,0.28,6504,120,120
ensp,30,500,120,10,8,0.2,0,0.28,6396,120,120
ensp,30,500,140,1,8,0.2,0,0.28,6240,127,127
ensp,30,500,140,2,8,0.2,0,0.28,6380,132,132
ensp,30,500,140,3,8,0.2,0,0.28,6412,130,130
ensp,30,500,140,4,8,0.2,0,0.29,6352,131,131
ensp,30,500,140,5,8,0.2,0,0.24,6376,134,134
ensp,30,500,140,6,8,0.2,0,0.25,6396,135,135
ensp,30,500,140,7,8,0.2,0,0.28,6276,130,130
ensp,30,500,140,8,8,0.2,0,0.27,6312,126,126
ensp,30,500,140,9,8,0.2,0,0.28,6304,129,129
ensp,30,500,140,10,8,0.2,0,0.29,6340,130,130
ensp,30,500,160,1,8,0.2,0,0.2,5884,100,100
ensp,30,500,160,2,8,0.2,0,0.2,5844,98,98
ensp,30,500,160,3,8,0.2,0,0.24,5860,96,96
ensp,30,500,160,4,8,0.2,0,0.27,5656,92,92
ensp,30,500,160,5,8,0.2,0,0.25,5844,101,101
ensp,30,500,160,6,8,0.2,0,0.25,5856,95,95
ensp,30,500,160,7,8,0.2,0,0.25,5920,102,102
ensp,30,500,160,8,8,0.2,0,0.21,5836,105,105
ensp,30,500,160,9,8,0.2,0,0.2,5800,97,97
ensp,30,500,160,10,8,0.2,0,0.19,5744,92,92
censp,30,500,15,1,0,0.2,0,300,0,164104,163590
censp,30,500,15,2,0,0.2,0,300,0,182835,182325
censp,30,500,15,3,0,0.2,0,300,0,189978,189592
censp,30,500,15,4,0,0.2,0,300,0,164634,164151
censp,30,500,15,5,0,0.2,0,300,0,187276,186888
censp,30,500,15,6,0,0.2,0,300,0,169343,168860
censp,30,500,15,7,0,0.2,0,300,0,166380,165850
censp,30,500,15,8,0,0.2,0,300,0,180520,180133
censp,30,500,15,9,0,0.2,0,300,0,173932,173443
censp,30,500,15,10,0,0.2,0,300,0,172338,171823
censp,30,500,20,1,0,0.2,0,300,0,131456,129332
censp,30,500,20,2,0,0.2,0,273.23,4460,123679,121492
censp,30,500,20,3,0,0.2,0,245.32,3888,110083,108056
censp,30,500,20,4,0,0.2,0,268.12,4516,118372,116272
censp,30,500,20,5,0,0.2,0,262.01,4440,117311,115095
censp,30,500,20,6,0,0.2,0,241.64,4444,111810,109957
censp,30,500,20,7,0,0.2,0,266.09,3976,122746,120708
censp,30,500,20,8,0,0.2,0,300,0,158413,156787
censp,30,500,20,9,0,0.2,0,290.36,4436,128366,126046
censp,30,500,20,10,0,0.2,0,282.36,4380,129146,126855
censp,30,500,30,1,0,0.2,0,137.46,4420,88782,87855
censp,30,500,30,2,0,0.2,0,168.85,4448,112448,111516
censp,30,500,30,3,0,0.2,0,144.23,4344,88622,87693
censp,30,500,30,4,0,0.2,0,137.12,4420,86154,85226
censp,30,500,30,5,0,0.2,0,142.96,4456,93733,92805
censp,30,500,30,6,0,0.2,0,141.16,4404,89637,88715
censp,30,500,30,7,0,0.2,0,147.51,4388,98244,97322
censp,30,500,30,8,0,0.2,0,154.79,4356,96282,95351
censp,30,500,30,9,0,0.2,0,149.7,4392,97843,96915
censp,30,500,30,10,0,0.2,0,155.53,4404,98938,98012
censp,30,500,40,1,0,0.2,0,8.04,4420,5009,4878
censp,30,500,40,2,0,0.2,0,10.32,4364,7426,7289
censp,30,500,40,3,0,0.2,0,11.77,4364,6997,6774
censp,30,500,40,4,0,0.2,0,17.28,4400,12083,11902
censp,30,500,40,5,0,0.2,0,16.97,4396,11385,11177
censp,30,500,40,6,0,0.2,0,13.52,4356,8807,8634
censp,30,500,40,7,0,0.2,0,9.21,4352,5649,5484
censp,30,500,40,8,0,0.2,0,19.11,4404,12355,12146
censp,30,500,40,9,0,0.2,0,9.39,4408,6024,5858
censp,30,500,40,10,0,0.2,0,8.53,4468,5507,5361
censp,30,500,60,1,0,0.2,0,0.9,4328,534,467
censp,30,500,60,2,0,0.2,0,1.62,4360,1378,1312
censp,30,500,60,3,0,0.2,0,0.31,4380,112,47
censp,30,500,60,4,0,0.2,0,0.23,4336,65,3
censp,30,500,60,5,0,0.2,0,0.22,4400,61,0
censp,30,500,60,6,0,0.2,0,0.28,4320,77,12
censp,30,500,60,7,0,0.2,0,2.82,4324,1821,1754
censp,30,500,60,8,0,0.2,0,1.12,4396,660,596
censp,30,500,60,9,0,0.2,0,0.23,4416,73,9
censp,30,500,60,10,0,0.2,0,0.22,4364,72,9
censp,30,500,80,1,0,0.2,0,0.24,4284,81,0
censp,30,500,80,2,0,0.2,0,0.24,4396,81,0
censp,30,500,80,3,0,0.2,0,0.24,4320,81,0
censp,30,500,80,4,0,0.2,0,0.23,4312,81,0
censp,30,500,80,5,0,0.2,0,0.54,4380,183,98
censp,30,500,80,6,0,0.2,0,0.23,4344,81,0
censp,30,500,80,7,0,0.2,0,0.24,4320,81,0
censp,30,500,80,8,0,0.2,0,0.23,4392,81,0
censp,30,500,80,9,0,0.2,0,0.19,4368,81,0
censp,30,500,80,10,0,0.2,0,0.19,4436,81,0
censp,30,500,100,1,0,0.2,0,0.21,4372,101,0
censp,30,500,100,2,0,0.2,0,0.25,4300,101,0
censp,30,500,100,3,0,0.2,0,0.25,4316,101,0
censp,30,500,100,4,0,0.2,0,0.21,4384,101,0
censp,30,500,100,5,0,0.2,0,0.25,4380,100,0
censp,30,500,100,6,0,0.2,0,0.25,4384,101,0
censp,30,500,100,7,0,0.2,0,0.25,4368,100,0
censp,30,500,100,8,0,0.2,0,0.26,4336,101,0
censp,30,500,100,9,0,0.2,0,0.25,4420,100,0
censp,30,500,100,10,0,0.2,0,0.25,4280,100,0
censp,30,500,120,1,0,0.2,0,0.24,4376,91,0
censp,30,500,120,2,0,0.2,0,0.24,4440,92,0
censp,30,500,120,3,0,0.2,0,0.24,4392,94,0
censp,30,500,120,4,0,0.2,0,0.24,4336,95,0
censp,30,500,120,5,0,0.2,0,0.23,4276,79,0
censp,30,500,120,6,0,0.2,0,0.24,4328,91,0
censp,30,500,120,7,0,0.2,0,0.23,4356,84,0
censp,30,500,120,8,0,0.2,0,0.24,4324,95,0
censp,30,500,120,9,0,0.2,0,0.24,4316,93,0
censp,30,500,120,10,0,0.2,0,0.24,4368,93,0
censp,30,500,140,1,0,0.2,0,0.17,4440,38,0
censp,30,500,140,2,0,0.2,0,0.12,4324,32,0
censp,30,500,140,3,0,0.2,0,0.17,4456,36,0
censp,30,500,140,4,0,0.2,0,0.16,4404,38,0
censp,30,500,140,5,0,0.2,0,0.16,4368,38,0
censp,30,500,140,6,0,0.2,0,0.17,4376,33,0
censp,30,500,140,7,0,0.2,0,0.17,4376,34,0
censp,30,500,140,8,0,0.2,0,0.12,4376,35,0
censp,30,500,140,9,0,0.2,0,0.12,4320,36,0
censp,30,500,140,10,0,0.2,0,0.16,4340,32,0
censp,30,500,160,1,0,0.2,0,0.11,4444,13,0
censp,30,500,160,2,0,0.2,0,0.12,4340,11,0
censp,30,500,160,3,0,0.2,0,0.11,4376,14,0
censp,30,500,160,4,0,0.2,0,0.11,4384,13,0
censp,30,500,160,5,0,0.2,0,0.12,4372,14,0
censp,30,500,160,6,0,0.2,0,0.11,4440,14,0
censp,30,500,160,7,0,0.2,0,0.11,4372,13,0
censp,30,500,160,8,0,0.2,0,0.11,4392,11,0
censp,30,500,160,9,0,0.2,0,0.11,4428,12,0
censp,30,500,160,10,0,0.2,0,0.07,4388,12,0
