0 17 1 1
0 199 1 4
0 200 1 5
0 246 1 11
0 247 1 17
0 348 1 6
0 418 1 11
0 522 1 2
0 531 1 7
0 572 1 17
0 575 1 7
0 597 1 1
0 856 1 6
0 965 1 17
0 975 1 7
0 991 1 10
1 111 1 18
1 116 1 11
1 127 1 6
1 174 1 4
1 259 1 11
1 264 1 11
1 350 1 13
1 457 1 17
1 472 1 0
1 588 1 8
1 666 1 3
1 712 1 4
1 805 1 13
1 822 1 17
1 910 1 7
2 20 1 14
2 71 1 10
2 304 1 6
2 332 1 10
2 434 1 19
2 463 1 18
2 464 1 6
2 467 1 2
2 485 1 1
2 599 1 19
2 661 1 8
2 785 1 15
2 818 1 11
2 942 1 9
3 26 1 13
3 43 1 9
3 59 1 19
3 128 1 4
3 223 1 12
3 242 1 8
3 312 1 17
3 314 1 6
3 340 1 11
3 408 1 6
3 575 1 2
3 611 1 6
3 636 1 18
3 725 1 8
3 827 1 16
3 928 1 5
4 16 1 1
4 40 1 2
4 141 1 6
4 322 1 0
4 347 1 18
4 416 1 11
4 451 1 9
4 491 1 19
4 505 1 15
4 519 1 4
4 601 1 9
4 760 1 1
4 770 1 9
4 804 1 6
4 864 1 3
5 15 1 19
5 39 1 14
5 126 1 11
5 150 1 16
5 165 1 17
5 243 1 15
5 281 1 11
5 318 1 13
5 448 1 5
5 462 1 12
5 543 1 2
5 648 1 6
5 666 1 17
5 736 1 15
6 29 1 6
6 132 1 2
6 193 1 18
6 340 1 16
6 348 1 8
6 365 1 19
6 411 1 15
6 414 1 11
6 432 1 13
6 491 1 15
6 631 1 7
6 735 1 6
6 757 1 12
6 779 1 5
6 862 1 8
7 64 1 8
7 242 1 1
7 264 1 19
7 353 1 18
7 488 1 1
7 498 1 10
7 551 1 10
7 628 1 3
7 655 1 16
7 761 1 19
7 914 1 4
7 963 1 19
7 997 1 0
8 136 1 7
8 173 1 17
8 210 1 0
8 300 1 14
8 342 1 0
8 372 1 11
8 431 1 4
8 455 1 8
8 472 1 19
8 501 1 12
8 575 1 10
8 577 1 3
8 587 1 9
8 659 1 8
9 62 1 11
9 64 1 6
9 81 1 1
9 135 1 8
9 143 1 11
9 158 1 17
9 172 1 2
9 261 1 8
9 305 1 3
9 393 1 17
9 422 1 4
9 640 1 7
9 736 1 6
9 888 1 2
9 901 1 9
9 910 1 12
10 78 1 5
10 79 1 15
10 125 1 5
10 198 1 16
10 214 1 13
10 216 1 2
10 278 1 8
10 347 1 18
10 364 1 19
10 380 1 4
10 495 1 2
10 845 1 8
10 847 1 8
10 934 1 10
11 51 1 8
11 54 1 1
11 70 1 8
11 96 1 8
11 108 1 4
11 134 1 0
11 211 1 0
11 282 1 1
11 366 1 8
11 415 1 19
11 482 1 9
11 807 1 7
11 975 1 4
12 56 1 2
12 58 1 1
12 71 1 15
12 83 1 16
12 149 1 10
12 326 1 11
12 408 1 15
12 627 1 8
12 632 1 10
12 715 1 7
12 829 1 9
12 845 1 0
12 971 1 16
13 15 1 0
13 83 1 8
13 171 1 5
13 220 1 6
13 224 1 0
13 310 1 2
13 368 1 18
13 369 1 3
13 410 1 7
13 423 1 16
13 531 1 10
13 543 1 8
13 562 1 3
13 587 1 17
13 724 1 15
13 740 1 13
13 960 1 13
14 14 1 14
14 48 1 14
14 108 1 5
14 227 1 10
14 314 1 19
14 392 1 19
14 436 1 17
14 591 1 8
14 596 1 11
14 622 1 14
14 688 1 11
14 987 1 5
15 228 1 19
15 254 1 7
15 287 1 11
15 294 1 7
15 317 1 5
15 337 1 10
15 464 1 8
15 583 1 18
15 588 1 8
15 600 1 11
15 732 1 13
15 776 1 4
15 796 1 6
15 891 1 8
15 920 1 14
16 30 1 5
16 50 1 10
16 158 1 8
16 170 1 12
16 178 1 15
16 200 1 10
16 277 1 2
16 337 1 6
16 345 1 3
16 441 1 17
16 558 1 7
16 666 1 8
16 712 1 12
16 893 1 9
17 94 1 18
17 125 1 5
17 154 1 17
17 174 1 16
17 181 1 4
17 276 1 18
17 317 1 6
17 429 1 15
17 498 1 17
17 559 1 12
17 767 1 8
17 880 1 0
17 929 1 5
17 946 1 1
18 63 1 2
18 142 1 0
18 224 1 13
18 228 1 6
18 377 1 0
18 401 1 8
18 753 1 2
18 769 1 15
18 802 1 11
18 898 1 15
18 944 1 17
19 3 1 13
19 19 1 15
19 97 1 0
19 157 1 16
19 242 1 15
19 332 1 9
19 392 1 14
19 437 1 13
19 444 1 3
19 525 1 9
19 605 1 6
19 607 1 4
19 774 1 13
19 820 1 1
19 822 1 19
19 882 1 12
20 26 1 12
20 47 1 19
20 79 1 5
20 79 1 3
20 113 1 8
20 156 1 0
20 255 1 8
20 275 1 16
20 276 1 12
20 352 1 11
20 370 1 13
20 604 1 11
20 658 1 14
20 687 1 9
20 809 1 19
20 975 1 0
20 997 1 2
21 170 1 18
21 182 1 2
21 237 1 16
21 278 1 15
21 281 1 11
21 286 1 7
21 288 1 1
21 329 1 0
21 335 1 19
21 751 1 18
21 841 1 5
21 842 1 5
21 922 1 5
21 962 1 16
21 994 1 1
22 10 1 6
22 61 1 13
22 189 1 11
22 275 1 7
22 360 1 10
22 387 1 1
22 406 1 2
22 486 1 5
22 582 1 12
22 597 1 2
22 653 1 10
22 742 1 6
22 816 1 0
23 31 1 15
23 238 1 0
23 323 1 19
23 401 1 9
23 596 1 11
23 609 1 8
23 648 1 7
23 652 1 12
23 693 1 18
23 748 1 12
23 758 1 10
23 798 1 6
23 886 1 19
23 902 1 1
23 932 1 2
24 43 1 8
24 63 1 14
24 142 1 18
24 151 1 0
24 403 1 17
24 461 1 19
24 484 1 17
24 512 1 12
24 561 1 8
24 616 1 19
24 663 1 9
24 747 1 11
24 797 1 15
24 842 1 1
24 954 1 9
25 161 1 9
25 220 1 19
25 348 1 11
25 393 1 8
25 416 1 6
25 508 1 9
25 530 1 2
25 584 1 5
25 587 1 18
25 605 1 18
25 665 1 7
25 705 1 18
25 771 1 8
25 954 1 9
26 34 1 10
26 51 1 19
26 127 1 3
26 134 1 15
26 153 1 12
26 201 1 0
26 420 1 7
26 431 1 17
26 453 1 18
26 480 1 6
26 700 1 5
26 714 1 18
26 792 1 8
26 810 1 14
26 836 1 0
26 873 1 13
26 973 1 13
27 5 1 18
27 215 1 17
27 235 1 19
27 252 1 2
27 385 1 19
27 473 1 0
27 510 1 8
27 516 1 9
27 518 1 5
27 634 1 11
27 642 1 18
27 704 1 2
27 773 1 1
27 818 1 0
27 940 1 15
28 15 1 17
28 50 1 19
28 128 1 10
28 138 1 1
28 203 1 1
28 233 1 14
28 335 1 18
28 610 1 6
28 617 1 15
28 771 1 18
28 812 1 0
28 818 1 7
28 867 1 1
28 880 1 8
28 952 1 4
29 7 1 18
29 24 1 19
29 54 1 12
29 96 1 18
29 122 1 6
29 230 1 4
29 467 1 6
29 510 1 7
29 565 1 5
29 621 1 8
29 652 1 0
29 892 1 5
29 978 1 11
30 39 1 11
30 119 1 18
30 121 1 3
30 127 1 0
30 140 1 15
30 217 1 18
30 272 1 15
30 367 1 15
30 444 1 5
30 515 1 7
30 553 1 18
30 679 1 16
30 761 1 2
30 853 1 12
30 933 1 1
31 66 1 18
31 89 1 19
31 98 1 11
31 138 1 14
31 152 1 16
31 168 1 10
31 182 1 14
31 182 1 9
31 240 1 0
31 282 1 6
31 340 1 4
31 349 1 13
31 448 1 6
31 821 1 13
32 37 1 9
32 133 1 3
32 302 1 16
32 414 1 18
32 472 1 3
32 550 1 15
32 658 1 4
32 774 1 19
32 812 1 2
32 839 1 18
32 879 1 13
32 917 1 6
32 939 1 17
32 940 1 2
33 35 1 5
33 71 1 18
33 178 1 1
33 180 1 19
33 188 1 13
33 211 1 8
33 217 1 7
33 301 1 8
33 360 1 6
33 386 1 8
33 495 1 11
33 558 1 19
33 817 1 10
33 880 1 17
34 40 1 6
34 153 1 18
34 210 1 14
34 236 1 11
34 305 1 18
34 307 1 7
34 450 1 1
34 493 1 6
34 593 1 2
34 653 1 18
34 718 1 11
34 744 1 14
34 833 1 8
34 927 1 15
34 945 1 13
35 83 1 16
35 165 1 4
35 359 1 8
35 360 1 9
35 505 1 6
35 540 1 7
35 544 1 4
35 578 1 19
35 692 1 13
35 877 1 17
35 885 1 13
35 904 1 9
35 980 1 14
35 999 1 7
36 25 1 18
36 48 1 1
36 55 1 19
36 266 1 16
36 354 1 5
36 377 1 18
36 647 1 2
36 698 1 9
36 706 1 16
36 768 1 19
36 795 1 18
36 806 1 12
36 834 1 12
36 942 1 18
37 25 1 18
37 113 1 19
37 203 1 10
37 277 1 4
37 341 1 6
37 392 1 19
37 400 1 1
37 505 1 12
37 531 1 10
37 578 1 7
37 757 1 14
37 795 1 17
37 811 1 0
37 950 1 15
38 156 1 3
38 160 1 19
38 194 1 18
38 201 1 6
38 269 1 1
38 307 1 16
38 314 1 3
38 371 1 17
38 468 1 17
38 482 1 18
38 517 1 3
38 676 1 2
38 714 1 13
38 722 1 13
38 885 1 15
38 919 1 17
39 14 1 17
39 32 1 9
39 116 1 16
39 171 1 9
39 195 1 3
39 322 1 7
39 434 1 11
39 724 1 7
39 783 1 19
39 787 1 9
39 808 1 7
39 884 1 13
39 922 1 17
39 931 1 9
40 9 1 19
40 104 1 19
40 233 1 2
40 300 1 7
40 309 1 17
40 401 1 16
40 412 1 19
40 419 1 12
40 662 1 16
40 825 1 2
40 848 1 13
40 859 1 19
40 893 1 8
40 915 1 15
40 930 1 8
41 14 1 4
41 160 1 10
41 178 1 13
41 295 1 6
41 339 1 17
41 344 1 11
41 444 1 2
41 480 1 12
41 500 1 18
41 522 1 17
41 636 1 8
41 711 1 3
41 771 1 13
41 871 1 10
41 975 1 8
42 4 1 4
42 33 1 15
42 46 1 12
42 212 1 17
42 224 1 14
42 393 1 6
42 446 1 4
42 576 1 2
42 616 1 16
42 667 1 18
42 670 1 4
42 709 1 5
42 825 1 14
42 855 1 7
42 886 1 16
42 901 1 0
42 926 1 11
43 43 1 15
43 45 1 7
43 77 1 4
43 115 1 10
43 134 1 15
43 321 1 6
43 348 1 12
43 368 1 12
43 687 1 12
43 705 1 1
43 738 1 11
43 889 1 19
43 964 1 2
44 118 1 7
44 169 1 18
44 179 1 19
44 297 1 4
44 299 1 8
44 460 1 11
44 531 1 9
44 624 1 10
44 685 1 12
44 735 1 0
44 890 1 11
44 939 1 6
44 989 1 8
45 61 1 12
45 152 1 4
45 264 1 13
45 266 1 17
45 268 1 1
45 270 1 12
45 333 1 8
45 452 1 7
45 489 1 16
45 715 1 18
45 725 1 17
45 771 1 17
45 820 1 6
45 868 1 7
45 914 1 0
45 924 1 15
46 70 1 5
46 191 1 19
46 194 1 7
46 305 1 10
46 364 1 17
46 451 1 0
46 479 1 1
46 519 1 11
46 565 1 0
46 649 1 6
46 665 1 10
46 681 1 19
46 706 1 11
46 753 1 11
46 787 1 15
46 881 1 7
47 100 1 6
47 111 1 14
47 255 1 9
47 345 1 12
47 435 1 16
47 485 1 6
47 547 1 18
47 559 1 10
47 573 1 0
47 636 1 5
47 696 1 6
47 848 1 11
47 935 1 1
48 11 1 1
48 35 1 17
48 85 1 14
48 87 1 7
48 143 1 5
48 155 1 12
48 166 1 15
48 382 1 19
48 400 1 9
48 412 1 15
48 480 1 19
48 702 1 3
48 788 1 7
48 803 1 13
48 911 1 8
48 913 1 11
48 923 1 14
49 5 1 3
49 100 1 8
49 142 1 9
49 154 1 12
49 164 1 10
49 359 1 13
49 365 1 4
49 462 1 3
49 488 1 14
49 498 1 16
49 528 1 15
49 801 1 4
49 905 1 11
49 964 1 18
49 972 1 19
50 115 1 18
50 169 1 8
50 181 1 2
50 341 1 7
50 496 1 19
50 503 1 6
50 626 1 19
50 657 1 1
50 737 1 16
50 759 1 17
50 865 1 13
50 876 1 5
50 893 1 15
51 3 1 0
51 10 1 17
51 153 1 14
51 164 1 11
51 214 1 1
51 219 1 18
51 244 1 6
51 326 1 9
51 436 1 6
51 478 1 11
51 522 1 11
51 549 1 7
51 647 1 1
51 690 1 16
51 779 1 1
51 867 1 12
52 8 1 0
52 198 1 6
52 304 1 11
52 307 1 4
52 414 1 7
52 495 1 1
52 555 1 6
52 575 1 8
52 691 1 14
52 902 1 3
52 931 1 16
52 943 1 4
52 953 1 13
53 135 1 0
53 338 1 10
53 339 1 5
53 403 1 16
53 497 1 3
53 554 1 17
53 558 1 7
53 606 1 16
53 658 1 16
53 662 1 3
53 664 1 4
53 686 1 12
53 694 1 7
53 713 1 10
53 812 1 9
53 918 1 9
54 43 1 1
54 97 1 15
54 137 1 19
54 177 1 1
54 303 1 8
54 380 1 12
54 457 1 11
54 585 1 7
54 642 1 1
54 699 1 10
54 741 1 6
54 750 1 4
54 904 1 19
54 906 1 18
54 968 1 1
55 6 1 14
55 30 1 15
55 42 1 19
55 117 1 18
55 182 1 5
55 184 1 10
55 268 1 5
55 345 1 7
55 391 1 6
55 566 1 11
55 633 1 7
55 684 1 1
55 690 1 7
55 842 1 11
55 989 1 8
56 10 1 1
56 143 1 18
56 148 1 9
56 341 1 18
56 344 1 7
56 488 1 8
56 539 1 10
56 558 1 8
56 603 1 1
56 667 1 2
56 704 1 16
56 834 1 19
56 924 1 13
56 932 1 8
56 972 1 19
56 976 1 7
56 978 1 17
57 57 1 3
57 102 1 9
57 345 1 8
57 398 1 16
57 415 1 5
57 454 1 19
57 559 1 4
57 583 1 13
57 636 1 2
57 665 1 5
57 694 1 16
57 726 1 8
57 740 1 8
57 960 1 3
58 94 1 13
58 199 1 8
58 275 1 5
58 368 1 2
58 464 1 18
58 470 1 6
58 473 1 12
58 489 1 0
58 502 1 4
58 525 1 5
58 622 1 2
58 627 1 6
58 750 1 12
58 878 1 15
58 925 1 19
58 953 1 1
58 978 1 3
59 77 1 0
59 78 1 5
59 216 1 17
59 248 1 5
59 251 1 15
59 315 1 14
59 352 1 19
59 421 1 0
59 481 1 19
59 662 1 14
59 758 1 16
59 770 1 15
59 788 1 3
59 825 1 13
59 844 1 3
60 41 1 18
60 56 1 10
60 87 1 3
60 227 1 17
60 261 1 18
60 272 1 15
60 280 1 8
60 481 1 1
60 570 1 4
60 741 1 7
60 848 1 15
60 861 1 14
60 906 1 16
60 922 1 4
61 17 1 6
61 43 1 19
61 85 1 19
61 97 1 2
61 160 1 18
61 316 1 14
61 333 1 8
61 447 1 10
61 488 1 16
61 498 1 18
61 631 1 10
61 762 1 5
61 808 1 3
61 888 1 6
62 18 1 3
62 157 1 17
62 405 1 2
62 441 1 1
62 443 1 13
62 497 1 14
62 663 1 11
62 840 1 6
62 847 1 19
62 866 1 6
62 901 1 2
62 926 1 2
62 986 1 12
63 51 1 4
63 133 1 0
63 325 1 19
63 334 1 6
63 378 1 11
63 436 1 6
63 460 1 7
63 521 1 10
63 583 1 2
63 610 1 1
63 640 1 18
63 658 1 7
63 733 1 8
63 922 1 10
63 967 1 19
63 985 1 2
64 13 1 0
64 95 1 10
64 114 1 13
64 215 1 0
64 306 1 8
64 355 1 19
64 435 1 0
64 435 1 17
64 489 1 13
64 500 1 3
64 585 1 3
64 605 1 18
64 738 1 9
64 786 1 1
64 924 1 7
64 962 1 13
65 125 1 8
65 160 1 7
65 220 1 12
65 339 1 0
65 356 1 8
65 366 1 4
65 388 1 17
65 455 1 2
65 512 1 5
65 664 1 19
65 828 1 14
65 828 1 8
65 863 1 10
65 988 1 1
66 34 1 19
66 186 1 0
66 189 1 19
66 337 1 16
66 399 1 8
66 432 1 8
66 510 1 3
66 527 1 5
66 558 1 11
66 659 1 15
66 724 1 15
66 743 1 17
66 867 1 7
66 995 1 6
67 143 1 9
67 218 1 8
67 263 1 15
67 273 1 16
67 481 1 18
67 541 1 7
67 570 1 14
67 635 1 6
67 753 1 4
67 788 1 17
67 789 1 9
67 902 1 18
67 913 1 9
67 975 1 4
68 20 1 19
68 199 1 7
68 290 1 14
68 334 1 6
68 485 1 0
68 509 1 19
68 570 1 5
68 630 1 19
68 659 1 6
68 743 1 6
68 838 1 8
68 867 1 11
68 921 1 3
68 972 1 12
68 990 1 0
69 93 1 2
69 202 1 6
69 263 1 16
69 298 1 3
69 367 1 2
69 397 1 6
69 421 1 18
69 554 1 8
69 559 1 11
69 612 1 14
69 652 1 7
69 792 1 1
69 974 1 9
69 976 1 0
70 4 1 16
70 14 1 0
70 116 1 11
70 129 1 3
70 176 1 19
70 185 1 11
70 391 1 9
70 397 1 10
70 397 1 16
70 644 1 11
70 799 1 4
70 935 1 19
70 990 1 3
71 59 1 6
71 185 1 19
71 207 1 11
71 283 1 7
71 346 1 1
71 371 1 8
71 423 1 0
71 548 1 11
71 552 1 13
71 658 1 11
71 717 1 15
71 743 1 3
71 905 1 19
72 24 1 17
72 62 1 8
72 62 1 16
72 96 1 8
72 218 1 8
72 247 1 16
72 311 1 9
72 326 1 3
72 439 1 9
72 521 1 13
72 522 1 3
72 637 1 5
72 688 1 11
73 10 1 13
73 191 1 3
73 191 1 8
73 210 1 12
73 220 1 4
73 244 1 0
73 466 1 8
73 500 1 5
73 523 1 4
73 609 1 9
73 675 1 17
73 711 1 17
73 811 1 5
74 47 1 4
74 57 1 3
74 70 1 8
74 73 1 0
74 193 1 1
74 226 1 1
74 244 1 12
74 309 1 8
74 414 1 15
74 455 1 4
74 562 1 9
74 721 1 4
74 773 1 8
74 862 1 6
74 918 1 13
75 32 1 5
75 79 1 19
75 173 1 1
75 196 1 19
75 249 1 19
75 311 1 8
75 474 1 7
75 528 1 10
75 540 1 17
75 689 1 17
75 756 1 17
75 761 1 18
75 923 1 7
76 24 1 9
76 157 1 18
76 277 1 7
76 352 1 9
76 503 1 13
76 528 1 2
76 581 1 9
76 611 1 14
76 655 1 14
76 862 1 0
76 913 1 3
76 969 1 14
77 94 1 16
77 201 1 7
77 247 1 7
77 282 1 17
77 336 1 7
77 358 1 10
77 363 1 5
77 399 1 3
77 464 1 2
77 492 1 4
77 519 1 1
77 535 1 19
77 543 1 4
77 677 1 3
77 711 1 4
77 836 1 13
78 260 1 10
78 454 1 19
78 576 1 1
78 577 1 8
78 594 1 9
78 660 1 16
78 663 1 2
78 692 1 2
78 711 1 8
78 723 1 11
78 735 1 15
78 761 1 1
78 860 1 4
78 885 1 0
78 947 1 7
78 973 1 11
78 980 1 15
79 30 1 4
79 73 1 14
79 211 1 11
79 238 1 4
79 242 1 10
79 352 1 17
79 540 1 17
79 563 1 11
79 630 1 2
79 699 1 11
79 714 1 8
79 763 1 12
79 811 1 9
79 912 1 7
79 994 1 17
80 4 1 19
80 36 1 0
80 58 1 13
80 177 1 8
80 231 1 19
80 528 1 7
80 564 1 15
80 580 1 10
80 751 1 19
80 808 1 19
80 810 1 16
80 819 1 11
80 859 1 10
80 864 1 8
81 38 1 10
81 60 1 11
81 114 1 14
81 197 1 14
81 368 1 13
81 429 1 0
81 522 1 9
81 632 1 13
81 799 1 8
81 901 1 11
81 908 1 11
81 912 1 1
81 944 1 16
82 6 1 8
82 153 1 8
82 246 1 14
82 268 1 12
82 344 1 15
82 398 1 19
82 413 1 5
82 457 1 6
82 570 1 8
82 640 1 6
82 666 1 15
82 679 1 0
82 857 1 15
82 981 1 3
82 985 1 13
83 30 1 19
83 87 1 14
83 233 1 1
83 385 1 12
83 429 1 1
83 471 1 13
83 553 1 16
83 628 1 6
83 640 1 12
83 671 1 14
83 699 1 10
83 757 1 2
83 827 1 2
83 857 1 5
83 940 1 11
84 59 1 13
84 65 1 2
84 69 1 9
84 266 1 14
84 289 1 2
84 515 1 6
84 551 1 1
84 596 1 0
84 715 1 6
84 740 1 17
84 897 1 14
84 938 1 3
84 968 1 19
84 984 1 9
85 6 1 15
85 53 1 11
85 98 1 13
85 147 1 6
85 209 1 10
85 228 1 18
85 247 1 8
85 279 1 1
85 353 1 19
85 409 1 5
85 630 1 5
85 720 1 4
85 826 1 5
85 830 1 6
85 860 1 3
85 970 1 5
85 992 1 14
86 12 1 14
86 323 1 10
86 410 1 6
86 416 1 8
86 587 1 12
86 630 1 3
86 677 1 15
86 688 1 11
86 765 1 1
86 768 1 17
86 788 1 2
86 883 1 11
86 992 1 7
87 6 1 7
87 15 1 15
87 29 1 15
87 31 1 9
87 190 1 12
87 274 1 5
87 294 1 5
87 441 1 2
87 447 1 15
87 508 1 16
87 592 1 13
87 626 1 15
87 683 1 16
87 879 1 11
87 915 1 4
87 938 1 8
87 943 1 12
88 149 1 1
88 169 1 11
88 241 1 7
88 253 1 14
88 286 1 2
88 320 1 19
88 426 1 2
88 435 1 12
88 525 1 0
88 535 1 13
88 568 1 10
88 613 1 19
88 662 1 2
88 663 1 19
88 729 1 1
89 4 1 8
89 10 1 8
89 30 1 17
89 82 1 10
89 146 1 15
89 211 1 19
89 410 1 13
89 555 1 3
89 608 1 18
89 659 1 5
89 681 1 2
89 748 1 5
89 835 1 14
89 857 1 7
90 69 1 7
90 78 1 19
90 83 1 4
90 115 1 6
90 118 1 12
90 131 1 9
90 197 1 2
90 247 1 18
90 284 1 3
90 338 1 10
90 359 1 16
90 369 1 2
90 384 1 7
90 420 1 8
90 650 1 0
90 684 1 8
91 49 1 2
91 268 1 7
91 280 1 14
91 281 1 3
91 324 1 6
91 325 1 8
91 346 1 11
91 364 1 11
91 399 1 15
91 454 1 18
91 460 1 7
91 606 1 1
91 676 1 1
91 701 1 8
91 742 1 1
91 796 1 17
92 13 1 13
92 16 1 15
92 27 1 1
92 87 1 16
92 143 1 4
92 169 1 11
92 211 1 19
92 254 1 2
92 413 1 16
92 481 1 9
92 517 1 15
92 585 1 7
92 618 1 4
92 673 1 12
92 721 1 7
92 801 1 3
93 12 1 5
93 26 1 16
93 64 1 9
93 119 1 8
93 143 1 7
93 275 1 17
93 289 1 8
93 311 1 12
93 321 1 12
93 581 1 8
93 715 1 6
93 838 1 5
93 873 1 12
93 907 1 12
94 7 1 10
94 123 1 12
94 164 1 8
94 164 1 1
94 277 1 0
94 288 1 19
94 292 1 5
94 336 1 1
94 337 1 14
94 492 1 18
94 587 1 1
94 669 1 12
94 687 1 14
94 708 1 0
94 826 1 18
94 877 1 6
94 903 1 13
94 999 1 16
95 31 1 12
95 38 1 14
95 214 1 0
95 227 1 8
95 316 1 3
95 318 1 6
95 347 1 13
95 439 1 14
95 468 1 15
95 610 1 11
95 642 1 12
95 688 1 14
95 853 1 15
96 51 1 16
96 80 1 10
96 313 1 1
96 326 1 9
96 379 1 16
96 412 1 15
96 509 1 6
96 681 1 0
96 698 1 19
96 740 1 3
96 778 1 18
96 812 1 3
96 822 1 17
96 826 1 7
96 892 1 12
96 971 1 0
97 23 1 4
97 83 1 3
97 111 1 15
97 140 1 18
97 233 1 14
97 254 1 18
97 367 1 5
97 449 1 11
97 513 1 15
97 591 1 4
97 606 1 19
97 791 1 2
97 954 1 11
98 46 1 13
98 102 1 9
98 252 1 6
98 255 1 10
98 341 1 18
98 370 1 16
98 433 1 4
98 486 1 4
98 695 1 10
98 810 1 14
98 943 1 1
98 993 1 3
99 145 1 13
99 284 1 7
99 304 1 0
99 336 1 3
99 355 1 2
99 462 1 17
99 555 1 15
99 633 1 15
99 676 1 2
99 687 1 9
99 795 1 19
99 834 1 0
99 899 1 11
99 958 1 15
100 44 1 4
100 104 1 19
100 113 1 19
100 250 1 8
100 255 1 4
100 255 1 8
100 421 1 5
100 425 1 7
100 450 1 11
100 594 1 8
100 604 1 3
100 633 1 18
100 996 1 0
100 999 1 3
101 23 1 15
101 115 1 12
101 123 1 8
101 272 1 1
101 323 1 10
101 327 1 19
101 366 1 6
101 455 1 10
101 475 1 6
101 544 1 11
101 621 1 19
101 631 1 5
101 632 1 7
101 641 1 2
101 706 1 18
101 728 1 1
101 838 1 8
101 850 1 18
102 68 1 14
102 176 1 6
102 232 1 14
102 313 1 2
102 319 1 13
102 362 1 18
102 400 1 12
102 415 1 17
102 446 1 8
102 701 1 19
102 835 1 13
102 856 1 6
102 993 1 8
103 20 1 19
103 43 1 4
103 204 1 9
103 231 1 3
103 247 1 17
103 264 1 10
103 357 1 7
103 479 1 10
103 820 1 7
103 903 1 19
103 903 1 14
103 993 1 13
103 995 1 13
104 25 1 10
104 159 1 2
104 189 1 17
104 363 1 10
104 374 1 15
104 641 1 8
104 660 1 14
104 708 1 12
104 723 1 15
104 745 1 2
104 776 1 0
104 825 1 2
104 871 1 3
104 943 1 14
105 42 1 2
105 56 1 3
105 67 1 11
105 87 1 1
105 186 1 14
105 204 1 18
105 236 1 7
105 397 1 1
105 526 1 9
105 634 1 8
105 671 1 19
105 803 1 0
105 880 1 6
105 988 1 16
106 56 1 19
106 146 1 0
106 200 1 17
106 292 1 1
106 381 1 3
106 413 1 1
106 476 1 12
106 510 1 6
106 519 1 0
106 663 1 2
106 736 1 13
106 786 1 9
106 813 1 16
106 929 1 0
107 38 1 11
107 54 1 11
107 107 1 8
107 133 1 15
107 326 1 14
107 332 1 8
107 342 1 11
107 343 1 13
107 590 1 13
107 591 1 18
107 600 1 1
107 611 1 18
107 635 1 5
107 731 1 8
107 928 1 15
108 3 1 16
108 21 1 5
108 64 1 17
108 69 1 4
108 96 1 14
108 279 1 19
108 291 1 9
108 511 1 8
108 529 1 0
108 619 1 11
108 689 1 14
108 745 1 14
108 835 1 15
108 976 1 3
109 29 1 16
109 44 1 19
109 119 1 10
109 165 1 7
109 246 1 13
109 267 1 10
109 269 1 3
109 326 1 4
109 343 1 11
109 452 1 17
109 700 1 1
109 807 1 7
109 838 1 0
109 856 1 16
109 861 1 3
109 946 1 9
110 40 1 14
110 259 1 7
110 314 1 11
110 364 1 18
110 367 1 2
110 445 1 13
110 535 1 0
110 574 1 14
110 601 1 4
110 658 1 12
110 659 1 17
110 814 1 11
110 906 1 7
110 954 1 9
110 974 1 3
111 25 1 12
111 66 1 17
111 300 1 6
111 360 1 19
111 391 1 0
111 406 1 11
111 406 1 4
111 439 1 4
111 529 1 7
111 557 1 18
111 565 1 6
111 645 1 1
111 668 1 12
111 727 1 15
111 875 1 5
112 157 1 13
112 499 1 6
112 515 1 14
112 623 1 2
112 686 1 18
112 788 1 19
112 870 1 8
112 906 1 19
112 919 1 12
112 936 1 7
112 947 1 3
112 956 1 15
112 978 1 3
113 13 1 15
113 173 1 6
113 228 1 11
113 242 1 5
113 308 1 6
113 310 1 0
113 390 1 2
113 440 1 18
113 456 1 4
113 524 1 13
113 536 1 8
113 618 1 2
113 663 1 1
113 935 1 16
114 63 1 18
114 190 1 16
114 215 1 16
114 218 1 18
114 239 1 10
114 384 1 12
114 453 1 10
114 486 1 11
114 557 1 2
114 595 1 9
114 645 1 3
114 759 1 7
114 871 1 11
114 872 1 7
114 941 1 7
114 965 1 10
115 37 1 19
115 51 1 6
115 228 1 5
115 247 1 3
115 278 1 19
115 278 1 7
115 331 1 17
115 434 1 12
115 453 1 8
115 488 1 14
115 507 1 19
115 568 1 11
115 578 1 6
115 611 1 3
115 784 1 10
116 60 1 7
116 108 1 7
116 205 1 14
116 265 1 7
116 268 1 14
116 271 1 7
116 364 1 15
116 408 1 18
116 484 1 17
116 615 1 6
116 714 1 15
116 798 1 8
116 841 1 0
116 856 1 14
116 875 1 4
116 914 1 11
116 952 1 15
116 987 1 18
117 59 1 16
117 181 1 7
117 258 1 15
117 564 1 3
117 570 1 6
117 584 1 1
117 634 1 6
117 638 1 4
117 711 1 8
117 822 1 15
118 41 1 3
118 131 1 19
118 155 1 2
118 253 1 15
118 375 1 10
118 406 1 14
118 416 1 7
118 605 1 12
118 740 1 15
118 744 1 10
118 762 1 4
118 786 1 14
118 811 1 11
119 53 1 5
119 88 1 17
119 146 1 8
119 190 1 7
119 378 1 7
119 508 1 0
119 638 1 19
119 661 1 4
119 714 1 15
119 782 1 6
119 786 1 13
119 834 1 2
119 866 1 18
120 49 1 12
120 188 1 4
120 255 1 11
120 360 1 4
120 461 1 16
120 467 1 16
120 668 1 0
120 678 1 5
120 705 1 3
120 799 1 2
120 876 1 2
120 925 1 0
120 962 1 15
120 979 1 18
121 71 1 14
121 155 1 4
121 202 1 14
121 238 1 4
121 256 1 11
121 309 1 1
121 339 1 1
121 353 1 0
121 593 1 6
121 634 1 9
121 809 1 10
121 882 1 0
121 893 1 11
122 94 1 13
122 119 1 10
122 177 1 0
122 187 1 13
122 369 1 14
122 403 1 12
122 570 1 0
122 591 1 11
122 614 1 8
122 620 1 18
122 621 1 19
122 842 1 8
122 885 1 11
122 915 1 19
123 6 1 14
123 84 1 2
123 125 1 3
123 149 1 10
123 216 1 17
123 350 1 15
123 358 1 4
123 405 1 7
123 543 1 9
123 585 1 6
123 587 1 10
123 665 1 3
123 692 1 4
123 894 1 19
123 973 1 8
124 87 1 19
124 199 1 18
124 221 1 13
124 256 1 7
124 265 1 2
124 278 1 11
124 303 1 13
124 371 1 11
124 394 1 18
124 537 1 11
124 544 1 10
124 622 1 8
124 645 1 10
124 737 1 14
124 770 1 11
124 970 1 4
125 16 1 19
125 24 1 16
125 165 1 9
125 208 1 6
125 272 1 13
125 337 1 17
125 375 1 5
125 412 1 11
125 459 1 1
125 478 1 6
125 622 1 3
125 694 1 2
125 862 1 0
125 899 1 6
125 950 1 19
125 982 1 18
126 228 1 15
126 437 1 15
126 449 1 7
126 496 1 11
126 510 1 1
126 546 1 18
126 582 1 8
126 687 1 7
126 717 1 0
126 820 1 15
126 903 1 14
126 921 1 14
126 965 1 14
127 97 1 0
127 169 1 14
127 293 1 2
127 358 1 8
127 360 1 13
127 378 1 12
127 413 1 7
127 441 1 9
127 470 1 9
127 550 1 1
127 772 1 17
127 838 1 1
127 875 1 14
127 939 1 1
128 35 1 19
128 53 1 10
128 58 1 16
128 164 1 12
128 177 1 5
128 291 1 18
128 441 1 19
128 462 1 15
128 516 1 15
128 590 1 19
128 594 1 6
128 683 1 0
128 734 1 13
128 863 1 10
129 42 1 19
129 50 1 13
129 61 1 18
129 102 1 15
129 140 1 10
129 141 1 6
129 301 1 18
129 361 1 3
129 486 1 18
129 492 1 5
129 655 1 1
129 839 1 19
129 851 1 19
129 915 1 1
129 988 1 5
130 128 1 10
130 162 1 4
130 189 1 6
130 361 1 4
130 440 1 18
130 485 1 13
130 807 1 17
130 826 1 13
130 864 1 11
130 866 1 4
130 940 1 9
131 175 1 14
131 190 1 6
131 295 1 5
131 368 1 15
131 438 1 4
131 487 1 12
131 488 1 12
131 535 1 14
131 580 1 13
131 697 1 11
131 700 1 15
131 722 1 11
131 754 1 12
131 799 1 15
131 908 1 18
132 130 1 13
132 151 1 13
132 152 1 2
132 369 1 10
132 500 1 6
132 547 1 11
132 598 1 1
132 716 1 12
132 730 1 1
132 760 1 13
132 797 1 7
132 893 1 16
132 894 1 4
132 976 1 6
133 49 1 14
133 260 1 6
133 336 1 2
133 397 1 18
133 507 1 19
133 539 1 0
133 555 1 2
133 572 1 8
133 577 1 5
133 614 1 17
133 711 1 9
133 765 1 16
133 801 1 7
133 971 1 9
134 15 1 10
134 85 1 4
134 97 1 16
134 194 1 5
134 238 1 4
134 308 1 16
134 345 1 18
134 437 1 17
134 472 1 19
134 480 1 8
134 585 1 17
134 590 1 10
134 657 1 11
134 733 1 19
134 961 1 7
135 15 1 12
135 90 1 15
135 98 1 16
135 152 1 15
135 242 1 9
135 260 1 17
135 312 1 5
135 383 1 7
135 421 1 2
135 649 1 16
135 681 1 15
135 682 1 0
135 744 1 0
135 853 1 10
136 7 1 5
136 112 1 18
136 162 1 11
136 263 1 8
136 318 1 19
136 482 1 13
136 539 1 8
136 549 1 15
136 612 1 10
136 693 1 10
136 705 1 10
136 726 1 17
136 851 1 4
137 8 1 17
137 35 1 12
137 79 1 10
137 163 1 12
137 234 1 4
137 258 1 18
137 271 1 18
137 329 1 18
137 368 1 5
137 402 1 1
137 516 1 15
137 702 1 14
137 710 1 5
137 736 1 10
137 847 1 1
137 992 1 6
138 4 1 10
138 5 1 7
138 69 1 6
138 123 1 19
138 140 1 2
138 185 1 4
138 225 1 16
138 269 1 4
138 307 1 16
138 335 1 2
138 426 1 13
138 509 1 16
138 633 1 1
138 678 1 3
138 821 1 17
138 842 1 8
138 850 1 13
138 928 1 7
139 22 1 7
139 42 1 10
139 44 1 6
139 65 1 15
139 94 1 13
139 225 1 9
139 279 1 3
139 456 1 12
139 481 1 3
139 530 1 12
139 646 1 18
139 739 1 3
139 861 1 7
139 862 1 1
139 942 1 3
139 943 1 1
140 23 1 0
140 30 1 14
140 91 1 10
140 112 1 16
140 224 1 14
140 239 1 19
140 241 1 9
140 275 1 5
140 308 1 0
140 320 1 17
140 358 1 6
140 553 1 6
140 639 1 5
140 816 1 5
140 907 1 8
140 955 1 2
141 74 1 18
141 79 1 9
141 126 1 18
141 407 1 9
141 497 1 17
141 545 1 3
141 786 1 2
141 821 1 5
141 854 1 13
141 897 1 0
141 899 1 6
141 949 1 0
141 973 1 6
142 50 1 12
142 155 1 17
142 227 1 2
142 249 1 6
142 328 1 4
142 329 1 2
142 416 1 0
142 429 1 4
142 478 1 19
142 553 1 17
142 580 1 14
142 621 1 11
142 783 1 9
142 816 1 2
142 839 1 12
142 964 1 14
143 18 1 4
143 57 1 12
143 65 1 19
143 98 1 16
143 111 1 13
143 257 1 8
143 270 1 2
143 396 1 3
143 651 1 6
143 694 1 13
143 847 1 11
143 873 1 13
143 886 1 13
144 58 1 11
144 94 1 14
144 102 1 4
144 104 1 6
144 207 1 12
144 485 1 12
144 506 1 8
144 729 1 5
144 765 1 4
144 957 1 15
144 961 1 17
144 965 1 15
145 47 1 11
145 56 1 11
145 104 1 9
145 312 1 13
145 321 1 16
145 344 1 5
145 386 1 15
145 460 1 5
145 564 1 11
145 582 1 1
145 610 1 7
145 693 1 3
145 711 1 8
145 713 1 17
145 717 1 19
145 805 1 13
145 858 1 11
145 866 1 0
146 110 1 12
146 214 1 19
146 305 1 12
146 477 1 19
146 487 1 17
146 648 1 8
146 648 1 7
146 711 1 2
146 738 1 11
146 771 1 3
146 814 1 0
146 815 1 19
146 865 1 11
146 896 1 2
146 955 1 18
146 992 1 18
147 211 1 9
147 240 1 0
147 313 1 4
147 354 1 9
147 426 1 13
147 426 1 3
147 459 1 17
147 613 1 8
147 713 1 17
147 767 1 16
147 850 1 2
147 896 1 14
147 979 1 19
147 998 1 6
148 4 1 9
148 94 1 5
148 99 1 6
148 139 1 5
148 227 1 13
148 304 1 1
148 324 1 3
148 378 1 1
148 382 1 6
148 393 1 13
148 502 1 7
148 529 1 15
148 606 1 4
148 771 1 3
148 870 1 9
149 103 1 17
149 327 1 2
149 356 1 7
149 438 1 6
149 498 1 4
149 557 1 2
149 619 1 18
149 625 1 9
149 633 1 4
149 686 1 17
149 709 1 8
149 793 1 5
149 917 1 9
150 11 1 4
150 127 1 14
150 202 1 17
150 225 1 10
150 371 1 4
150 456 1 14
150 467 1 6
150 489 1 9
150 505 1 11
150 578 1 7
150 609 1 18
150 636 1 1
150 649 1 1
150 660 1 3
150 705 1 3
150 919 1 17
151 114 1 7
151 127 1 17
151 210 1 0
151 225 1 6
151 240 1 12
151 255 1 3
151 300 1 2
151 344 1 6
151 367 1 18
151 540 1 8
151 690 1 1
151 719 1 9
151 874 1 4
151 957 1 14
151 957 1 12
152 151 1 18
152 183 1 18
152 325 1 2
152 489 1 0
152 522 1 17
152 527 1 11
152 555 1 16
152 575 1 14
152 654 1 17
152 710 1 17
152 731 1 13
152 790 1 3
152 826 1 14
152 875 1 7
152 938 1 5
152 985 1 8
153 27 1 15
153 27 1 7
153 311 1 1
153 357 1 11
153 412 1 8
153 558 1 5
153 652 1 6
153 686 1 12
153 703 1 4
153 758 1 9
153 792 1 10
153 889 1 2
153 924 1 8
153 925 1 7
154 42 1 17
154 67 1 4
154 154 1 9
154 158 1 3
154 251 1 7
154 262 1 11
154 332 1 7
154 344 1 4
154 353 1 15
154 389 1 19
154 430 1 16
154 575 1 14
154 610 1 3
154 662 1 7
154 813 1 6
155 169 1 12
155 176 1 14
155 225 1 15
155 355 1 19
155 549 1 16
155 583 1 5
155 606 1 9
155 654 1 18
155 669 1 18
155 669 1 3
155 677 1 10
155 682 1 9
155 714 1 3
155 922 1 19
156 86 1 10
156 127 1 8
156 149 1 17
156 180 1 6
156 255 1 19
156 283 1 1
156 307 1 6
156 340 1 13
156 361 1 3
156 543 1 17
156 635 1 2
156 720 1 6
156 863 1 3
156 864 1 1
156 950 1 5
156 966 1 16
157 150 1 9
157 201 1 11
157 367 1 6
157 368 1 7
157 437 1 14
157 499 1 6
157 604 1 18
157 626 1 4
157 670 1 7
157 686 1 15
157 708 1 19
157 795 1 3
157 823 1 14
157 875 1 11
157 931 1 4
157 940 1 4
158 142 1 9
158 160 1 10
158 234 1 4
158 300 1 10
158 329 1 1
158 366 1 19
158 416 1 12
158 495 1 12
158 713 1 4
158 814 1 4
158 862 1 13
158 935 1 13
158 948 1 13
158 991 1 17
158 996 1 7
159 74 1 19
159 201 1 16
159 232 1 6
159 341 1 18
159 422 1 11
159 485 1 7
159 626 1 1
159 759 1 3
159 790 1 9
159 847 1 11
159 955 1 16
159 967 1 0
159 990 1 11
159 993 1 1
160 109 1 8
160 140 1 12
160 171 1 7
160 178 1 14
160 261 1 0
160 425 1 7
160 579 1 3
160 655 1 0
160 683 1 17
160 740 1 14
160 799 1 7
160 890 1 7
160 980 1 17
161 100 1 19
161 158 1 17
161 170 1 7
161 174 1 9
161 193 1 7
161 200 1 12
161 346 1 6
161 349 1 5
161 361 1 12
161 363 1 3
161 386 1 8
161 427 1 3
161 449 1 11
161 509 1 13
161 529 1 15
161 654 1 6
161 740 1 18
161 782 1 14
161 975 1 1
162 35 1 19
162 152 1 8
162 217 1 7
162 260 1 15
162 298 1 12
162 346 1 3
162 451 1 11
162 655 1 13
162 678 1 11
162 777 1 9
162 796 1 12
162 818 1 15
162 995 1 7
163 11 1 10
163 37 1 5
163 42 1 16
163 135 1 17
163 209 1 15
163 368 1 19
163 388 1 9
163 473 1 13
163 570 1 4
163 612 1 2
163 663 1 7
163 879 1 13
163 918 1 5
163 941 1 15
164 61 1 7
164 110 1 13
164 125 1 11
164 167 1 5
164 190 1 6
164 195 1 1
164 294 1 5
164 513 1 0
164 571 1 16
164 682 1 15
164 778 1 9
164 874 1 6
164 928 1 3
164 963 1 19
165 143 1 1
165 244 1 9
165 278 1 7
165 342 1 16
165 366 1 16
165 387 1 9
165 388 1 18
165 398 1 3
165 525 1 9
165 535 1 3
165 624 1 4
165 698 1 7
165 774 1 13
165 850 1 0
165 898 1 12
165 915 1 15
166 46 1 19
166 105 1 12
166 177 1 1
166 234 1 10
166 372 1 1
166 435 1 7
166 544 1 14
166 563 1 10
166 638 1 18
166 704 1 12
166 753 1 1
166 804 1 13
166 872 1 17
166 876 1 0
166 894 1 17
166 923 1 16
167 216 1 3
167 236 1 13
167 245 1 19
167 281 1 6
167 299 1 11
167 354 1 1
167 363 1 14
167 385 1 8
167 497 1 11
167 524 1 14
167 658 1 14
167 743 1 7
167 803 1 7
167 814 1 9
167 894 1 12
168 52 1 16
168 59 1 3
168 81 1 2
168 186 1 19
168 260 1 15
168 358 1 3
168 467 1 0
168 482 1 19
168 607 1 0
168 730 1 2
168 807 1 1
168 870 1 19
168 969 1 11
169 180 1 1
169 316 1 18
169 356 1 6
169 384 1 11
169 450 1 7
169 463 1 12
169 500 1 1
169 642 1 6
169 653 1 11
169 797 1 4
169 863 1 7
169 938 1 12
169 993 1 10
170 18 1 13
170 24 1 4
170 32 1 6
170 93 1 9
170 94 1 0
170 196 1 2
170 225 1 7
170 237 1 13
170 261 1 18
170 407 1 3
170 427 1 8
170 429 1 4
170 526 1 7
170 675 1 11
170 945 1 5
171 66 1 19
171 130 1 13
171 177 1 18
171 259 1 3
171 294 1 10
171 317 1 14
171 368 1 6
171 384 1 10
171 488 1 0
171 490 1 2
171 538 1 8
171 543 1 18
171 594 1 8
171 789 1 17
171 970 1 17
171 996 1 11
172 126 1 3
172 145 1 8
172 178 1 11
172 198 1 6
172 277 1 2
172 287 1 13
172 339 1 18
172 386 1 7
172 396 1 8
172 542 1 3
172 599 1 17
172 632 1 16
172 663 1 8
172 833 1 15
172 887 1 14
172 983 1 18
173 67 1 10
173 78 1 19
173 183 1 7
173 273 1 2
173 282 1 19
173 380 1 6
173 528 1 19
173 597 1 5
173 603 1 3
173 804 1 7
173 965 1 1
174 77 1 11
174 314 1 14
174 403 1 3
174 419 1 14
174 590 1 13
174 591 1 19
174 620 1 7
174 693 1 10
174 699 1 18
174 705 1 7
174 738 1 2
174 791 1 19
174 830 1 4
174 891 1 11
174 984 1 17
175 7 1 12
175 33 1 8
175 81 1 17
175 82 1 1
175 222 1 4
175 304 1 11
175 325 1 9
175 359 1 18
175 394 1 19
175 404 1 5
175 426 1 9
175 519 1 18
175 660 1 2
175 725 1 12
175 754 1 18
175 780 1 11
175 839 1 3
176 80 1 5
176 94 1 13
176 160 1 2
176 194 1 18
176 224 1 9
176 388 1 8
176 420 1 4
176 523 1 0
176 660 1 6
176 722 1 8
176 726 1 3
176 744 1 10
176 759 1 5
176 795 1 0
176 815 1 1
176 948 1 15
177 42 1 6
177 115 1 18
177 197 1 2
177 263 1 18
177 319 1 5
177 354 1 6
177 359 1 8
177 433 1 8
177 452 1 11
177 507 1 5
177 532 1 3
177 539 1 7
177 597 1 1
177 807 1 14
178 55 1 16
178 126 1 6
178 242 1 3
178 344 1 11
178 375 1 19
178 417 1 11
178 445 1 14
178 533 1 13
178 533 1 5
178 545 1 8
178 630 1 7
178 711 1 11
178 853 1 3
178 892 1 13
179 66 1 12
179 135 1 16
179 172 1 13
179 226 1 11
179 245 1 7
179 473 1 19
179 537 1 15
179 650 1 4
179 710 1 18
179 940 1 8
179 981 1 11
179 990 1 10
180 43 1 15
180 190 1 14
180 233 1 10
180 311 1 8
180 325 1 5
180 335 1 9
180 353 1 7
180 356 1 4
180 500 1 16
180 503 1 5
180 700 1 0
180 718 1 18
180 741 1 6
180 880 1 11
180 922 1 11
180 948 1 13
181 83 1 19
181 220 1 8
181 273 1 3
181 290 1 11
181 329 1 5
181 335 1 9
181 347 1 11
181 379 1 18
181 510 1 7
181 532 1 15
181 533 1 5
181 542 1 14
181 724 1 8
182 36 1 16
182 99 1 19
182 367 1 4
182 392 1 14
182 432 1 1
182 474 1 5
182 480 1 16
182 544 1 18
182 558 1 0
182 634 1 1
182 752 1 17
182 837 1 4
182 841 1 16
182 844 1 3
183 4 1 16
183 135 1 15
183 385 1 3
183 444 1 17
183 474 1 14
183 492 1 8
183 589 1 5
183 594 1 16
183 596 1 12
183 656 1 19
183 673 1 13
183 817 1 3
183 836 1 13
183 840 1 4
183 935 1 12
183 975 1 10
184 56 1 18
184 254 1 0
184 392 1 9
184 505 1 17
184 765 1 16
184 799 1 11
184 808 1 0
184 924 1 6
184 927 1 16
184 995 1 1
185 40 1 19
185 53 1 8
185 88 1 9
185 109 1 2
185 180 1 7
185 180 1 2
185 268 1 14
185 312 1 12
185 380 1 9
185 393 1 17
185 592 1 19
185 629 1 14
185 733 1 2
185 770 1 13
185 855 1 14
185 991 1 4
186 48 1 5
186 90 1 16
186 110 1 0
186 175 1 19
186 288 1 8
186 325 1 18
186 403 1 11
186 585 1 15
186 600 1 7
186 623 1 18
186 696 1 9
186 700 1 6
186 736 1 4
186 738 1 15
186 913 1 11
187 5 1 1
187 28 1 19
187 86 1 6
187 350 1 6
187 364 1 5
187 414 1 11
187 439 1 16
187 531 1 7
187 572 1 1
187 630 1 1
187 689 1 1
187 902 1 3
187 919 1 11
187 928 1 3
188 53 1 6
188 117 1 11
188 128 1 11
188 198 1 7
188 248 1 1
188 250 1 15
188 264 1 16
188 356 1 8
188 448 1 11
188 485 1 16
188 489 1 17
188 516 1 11
188 917 1 15
189 32 1 14
189 50 1 15
189 268 1 5
189 340 1 15
189 358 1 14
189 450 1 6
189 502 1 9
189 650 1 6
189 675 1 8
189 743 1 7
189 751 1 17
189 775 1 0
189 790 1 15
189 794 1 0
189 810 1 14
189 890 1 8
190 36 1 5
190 45 1 8
190 203 1 0
190 336 1 15
190 372 1 13
190 392 1 1
190 407 1 6
190 410 1 19
190 429 1 19
190 443 1 14
190 609 1 8
190 627 1 13
190 683 1 11
190 773 1 17
190 906 1 5
190 962 1 18
191 1 1 9
191 110 1 12
191 220 1 17
191 349 1 19
191 438 1 13
191 482 1 8
191 542 1 2
191 586 1 4
191 645 1 11
191 706 1 17
191 739 1 19
191 757 1 2
191 764 1 10
191 951 1 4
191 980 1 17
192 73 1 2
192 77 1 7
192 147 1 4
192 240 1 13
192 244 1 5
192 267 1 18
192 383 1 19
192 441 1 17
192 494 1 15
192 515 1 19
192 695 1 10
192 747 1 8
192 764 1 2
192 766 1 9
192 818 1 15
192 853 1 5
192 984 1 3
193 44 1 2
193 140 1 13
193 230 1 11
193 283 1 8
193 393 1 4
193 403 1 2
193 477 1 3
193 533 1 0
193 594 1 14
193 855 1 1
193 912 1 15
193 924 1 9
193 993 1 18
194 6 1 10
194 35 1 7
194 66 1 8
194 76 1 7
194 112 1 9
194 119 1 8
194 205 1 3
194 226 1 8
194 300 1 9
194 358 1 3
194 385 1 11
194 698 1 1
194 711 1 15
194 814 1 18
194 915 1 4
195 26 1 6
195 46 1 14
195 62 1 6
195 156 1 2
195 204 1 0
195 219 1 18
195 311 1 8
195 335 1 6
195 347 1 15
195 585 1 19
195 785 1 19
195 831 1 17
195 881 1 12
196 18 1 0
196 72 1 9
196 178 1 6
196 234 1 2
196 384 1 6
196 590 1 5
196 602 1 9
196 788 1 6
196 862 1 6
196 872 1 6
196 947 1 1
196 952 1 6
196 955 1 0
197 50 1 16
197 208 1 14
197 264 1 17
197 267 1 6
197 321 1 11
197 366 1 15
197 424 1 7
197 442 1 4
197 461 1 16
197 515 1 10
197 573 1 1
197 636 1 19
197 923 1 9
198 86 1 17
198 133 1 13
198 137 1 12
198 258 1 17
198 359 1 13
198 360 1 14
198 384 1 8
198 507 1 12
198 510 1 14
198 534 1 19
198 783 1 1
199 71 1 19
199 177 1 18
199 214 1 16
199 383 1 5
199 441 1 9
199 511 1 15
199 560 1 13
199 762 1 1
199 818 1 7
199 840 1 10
199 889 1 8
199 997 1 0
200 12 1 8
200 57 1 9
200 211 1 19
200 355 1 1
200 356 1 10
200 469 1 10
200 527 1 0
200 598 1 10
200 678 1 0
200 704 1 11
200 752 1 3
200 786 1 3
200 824 1 16
200 973 1 13
201 33 1 7
201 134 1 9
201 255 1 19
201 355 1 6
201 367 1 12
201 387 1 1
201 509 1 0
201 514 1 19
201 638 1 14
201 646 1 3
201 659 1 0
201 708 1 6
201 762 1 6
201 783 1 4
201 807 1 9
201 819 1 12
202 19 1 19
202 37 1 2
202 229 1 1
202 233 1 12
202 315 1 15
202 421 1 17
202 434 1 9
202 492 1 9
202 494 1 6
202 577 1 14
202 614 1 16
202 833 1 10
203 32 1 9
203 157 1 19
203 160 1 10
203 253 1 11
203 261 1 15
203 263 1 7
203 328 1 8
203 392 1 12
203 440 1 19
203 480 1 4
203 621 1 2
203 654 1 1
203 693 1 9
203 749 1 18
203 816 1 8
203 963 1 1
204 42 1 1
204 69 1 13
204 364 1 3
204 385 1 7
204 389 1 18
204 553 1 13
204 663 1 10
204 674 1 13
204 718 1 15
204 719 1 2
204 751 1 10
204 981 1 0
205 72 1 18
205 94 1 10
205 136 1 19
205 292 1 11
205 429 1 11
205 485 1 10
205 535 1 7
205 610 1 10
205 610 1 13
205 629 1 11
205 672 1 10
205 817 1 14
205 836 1 19
205 957 1 15
206 9 1 16
206 67 1 16
206 90 1 7
206 213 1 6
206 220 1 10
206 330 1 11
206 387 1 2
206 629 1 8
206 661 1 11
206 701 1 0
206 721 1 13
206 765 1 16
206 785 1 2
206 812 1 17
207 224 1 13
207 683 1 16
207 695 1 19
207 747 1 8
207 755 1 14
207 764 1 14
207 766 1 4
207 780 1 2
207 811 1 9
207 885 1 2
207 889 1 5
207 903 1 2
207 957 1 15
208 123 1 9
208 177 1 4
208 233 1 3
208 338 1 6
208 381 1 2
208 402 1 4
208 416 1 6
208 456 1 14
208 650 1 6
208 665 1 14
208 689 1 14
208 711 1 11
208 801 1 5
208 865 1 10
208 965 1 11
208 998 1 15
209 38 1 0
209 125 1 19
209 308 1 10
209 393 1 16
209 473 1 19
209 490 1 18
209 620 1 8
209 691 1 5
209 721 1 0
209 815 1 17
209 863 1 12
209 898 1 12
210 8 1 9
210 67 1 5
210 78 1 15
210 184 1 11
210 387 1 6
210 437 1 8
210 498 1 17
210 510 1 4
210 559 1 2
210 574 1 1
210 612 1 18
210 699 1 4
210 706 1 8
210 751 1 13
210 923 1 14
211 61 1 12
211 118 1 5
211 223 1 3
211 281 1 18
211 521 1 4
211 545 1 15
211 612 1 16
211 645 1 13
211 659 1 14
211 759 1 12
211 760 1 10
211 809 1 3
211 848 1 0
211 905 1 14
211 921 1 0
211 970 1 10
211 984 1 10
212 12 1 10
212 97 1 14
212 155 1 10
212 216 1 0
212 236 1 16
212 285 1 1
212 374 1 15
212 407 1 17
212 550 1 10
212 558 1 0
212 616 1 14
212 655 1 17
212 725 1 15
212 762 1 15
212 768 1 10
212 828 1 16
212 848 1 9
212 908 1 18
213 28 1 13
213 73 1 12
213 124 1 3
213 144 1 14
213 162 1 12
213 176 1 1
213 229 1 11
213 571 1 12
213 620 1 17
213 641 1 14
213 735 1 10
213 748 1 11
213 838 1 14
214 6 1 8
214 67 1 5
214 90 1 0
214 115 1 2
214 127 1 0
214 132 1 7
214 157 1 4
214 396 1 12
214 547 1 3
214 708 1 14
214 955 1 8
215 141 1 4
215 257 1 7
215 334 1 10
215 340 1 6
215 343 1 13
215 375 1 10
215 491 1 11
215 495 1 8
215 505 1 8
215 538 1 4
215 556 1 7
215 646 1 14
215 699 1 1
215 984 1 15
216 123 1 3
216 145 1 6
216 245 1 11
216 323 1 9
216 344 1 13
216 361 1 7
216 379 1 18
216 422 1 5
216 437 1 1
216 517 1 15
216 542 1 18
216 638 1 6
216 674 1 10
216 966 1 18
217 86 1 9
217 127 1 4
217 199 1 13
217 489 1 10
217 490 1 5
217 658 1 9
217 669 1 8
217 757 1 15
217 834 1 17
217 887 1 3
217 950 1 18
218 12 1 2
218 17 1 4
218 24 1 19
218 45 1 15
218 52 1 16
218 235 1 12
218 251 1 0
218 342 1 10
218 356 1 9
218 429 1 0
218 520 1 11
218 529 1 14
218 669 1 7
218 732 1 14
218 909 1 7
219 66 1 8
219 127 1 17
219 222 1 11
219 251 1 15
219 254 1 1
219 272 1 19
219 322 1 7
219 385 1 13
219 606 1 9
219 665 1 10
219 690 1 8
219 804 1 1
219 806 1 4
219 835 1 1
220 25 1 2
220 162 1 2
220 279 1 6
220 340 1 0
220 387 1 3
220 401 1 6
220 410 1 5
220 432 1 19
220 593 1 7
220 718 1 13
220 741 1 9
220 790 1 19
220 913 1 7
220 954 1 1
221 31 1 6
221 52 1 15
221 78 1 3
221 222 1 2
221 276 1 18
221 361 1 8
221 418 1 13
221 474 1 5
221 573 1 8
221 619 1 5
221 785 1 5
221 888 1 18
221 894 1 3
221 987 1 16
222 35 1 8
222 116 1 1
222 170 1 16
222 260 1 13
222 277 1 4
222 306 1 6
222 397 1 4
222 501 1 12
222 561 1 12
222 665 1 16
222 687 1 6
222 727 1 15
222 960 1 9
222 983 1 11
223 65 1 5
223 102 1 17
223 203 1 4
223 372 1 8
223 405 1 10
223 441 1 4
223 443 1 14
223 478 1 14
223 494 1 0
223 530 1 0
223 555 1 5
223 631 1 4
223 748 1 8
223 764 1 16
224 9 1 6
224 116 1 3
224 116 1 8
224 179 1 16
224 191 1 17
224 202 1 8
224 219 1 16
224 232 1 1
224 403 1 5
224 454 1 18
224 491 1 4
224 634 1 19
224 648 1 8
224 794 1 10
224 871 1 6
224 924 1 9
224 942 1 16
224 962 1 4
225 13 1 19
225 183 1 7
225 185 1 9
225 418 1 4
225 431 1 1
225 564 1 18
225 688 1 11
225 692 1 9
225 767 1 15
225 881 1 10
225 949 1 18
226 22 1 3
226 48 1 19
226 61 1 8
226 116 1 12
226 133 1 16
226 234 1 8
226 354 1 11
226 389 1 19
226 402 1 11
226 550 1 13
226 564 1 10
226 654 1 14
226 655 1 17
226 815 1 15
226 903 1 7
226 940 1 5
227 111 1 8
227 242 1 1
227 250 1 16
227 284 1 2
227 327 1 11
227 509 1 8
227 521 1 16
227 647 1 14
227 708 1 5
227 870 1 17
227 957 1 14
227 981 1 8
227 998 1 4
228 1 1 11
228 87 1 7
228 208 1 12
228 293 1 15
228 450 1 18
228 473 1 19
228 512 1 16
228 546 1 15
228 714 1 8
228 716 1 6
228 742 1 7
228 747 1 15
228 884 1 17
228 908 1 2
228 977 1 8
229 51 1 12
229 83 1 6
229 114 1 8
229 199 1 8
229 219 1 9
229 239 1 13
229 345 1 14
229 386 1 15
229 423 1 4
229 447 1 13
229 481 1 18
229 528 1 2
229 579 1 12
229 688 1 13
229 781 1 4
229 813 1 6
229 820 1 11
230 160 1 14
230 187 1 11
230 191 1 16
230 214 1 2
230 277 1 14
230 380 1 7
230 420 1 5
230 480 1 8
230 496 1 9
230 510 1 5
230 556 1 9
230 673 1 19
230 874 1 5
230 952 1 15
230 984 1 1
230 994 1 18
231 119 1 11
231 152 1 18
231 189 1 17
231 278 1 16
231 410 1 2
231 438 1 6
231 545 1 6
231 613 1 16
231 613 1 4
231 758 1 19
231 789 1 2
231 899 1 13
232 35 1 5
232 111 1 15
232 378 1 17
232 389 1 3
232 439 1 3
232 495 1 16
232 510 1 14
232 762 1 3
232 859 1 12
232 895 1 9
232 912 1 7
232 914 1 0
232 928 1 18
233 42 1 12
233 206 1 0
233 232 1 0
233 277 1 8
233 279 1 1
233 295 1 10
233 314 1 12
233 447 1 18
233 453 1 13
233 583 1 7
233 596 1 13
233 622 1 0
233 694 1 2
233 777 1 8
233 791 1 11
233 962 1 5
234 68 1 8
234 256 1 17
234 265 1 11
234 408 1 9
234 464 1 18
234 466 1 10
234 491 1 14
234 521 1 14
234 681 1 0
234 702 1 1
234 766 1 10
234 775 1 3
234 882 1 7
234 936 1 15
234 992 1 7
235 41 1 12
235 44 1 6
235 99 1 14
235 346 1 16
235 357 1 6
235 456 1 11
235 522 1 7
235 576 1 1
235 650 1 16
235 756 1 15
235 878 1 13
235 934 1 5
236 12 1 18
236 158 1 5
236 178 1 1
236 234 1 9
236 379 1 11
236 495 1 2
236 657 1 8
236 775 1 0
236 785 1 2
236 822 1 4
236 852 1 16
236 862 1 9
236 884 1 4
236 974 1 13
237 7 1 18
237 42 1 7
237 47 1 9
237 308 1 12
237 311 1 5
237 502 1 19
237 525 1 15
237 551 1 8
237 783 1 8
237 904 1 4
237 907 1 11
237 909 1 4
237 975 1 3
237 986 1 8
238 84 1 3
238 101 1 15
238 133 1 15
238 143 1 5
238 228 1 6
238 261 1 1
238 273 1 7
238 400 1 18
238 430 1 2
238 488 1 18
238 488 1 16
238 580 1 14
238 587 1 8
238 710 1 6
239 12 1 18
239 283 1 6
239 330 1 11
239 341 1 8
239 367 1 13
239 390 1 7
239 479 1 1
239 680 1 17
239 813 1 3
239 894 1 5
239 899 1 17
239 920 1 12
240 19 1 16
240 158 1 6
240 331 1 2
240 386 1 18
240 444 1 8
240 478 1 14
240 606 1 5
240 639 1 18
240 660 1 14
240 676 1 1
240 944 1 7
240 992 1 1
241 90 1 5
241 125 1 13
241 186 1 2
241 187 1 15
241 219 1 16
241 253 1 6
241 284 1 16
241 369 1 18
241 435 1 11
241 473 1 1
241 554 1 6
241 649 1 9
241 720 1 14
241 763 1 1
241 827 1 17
241 909 1 12
241 997 1 14
242 68 1 19
242 152 1 0
242 192 1 2
242 422 1 3
242 427 1 3
242 492 1 0
242 497 1 19
242 513 1 1
242 710 1 4
242 716 1 8
242 721 1 5
242 799 1 5
242 803 1 4
242 807 1 16
242 982 1 15
243 6 1 14
243 24 1 15
243 29 1 18
243 91 1 7
243 118 1 14
243 197 1 3
243 438 1 3
243 455 1 1
243 561 1 12
243 611 1 5
243 669 1 11
243 681 1 3
243 751 1 1
243 789 1 17
243 825 1 19
243 828 1 4
243 957 1 8
244 54 1 11
244 131 1 8
244 206 1 5
244 249 1 3
244 280 1 4
244 377 1 7
244 407 1 9
244 411 1 13
244 427 1 6
244 437 1 17
244 451 1 10
244 492 1 11
244 567 1 7
244 609 1 14
244 697 1 1
244 963 1 7
245 320 1 8
245 357 1 17
245 389 1 10
245 417 1 13
245 450 1 0
245 510 1 2
245 513 1 4
245 561 1 12
245 652 1 18
245 813 1 2
245 947 1 4
245 952 1 9
245 975 1 8
245 992 1 19
246 73 1 12
246 109 1 13
246 122 1 14
246 298 1 2
246 351 1 6
246 479 1 15
246 569 1 15
246 620 1 1
246 630 1 1
246 875 1 2
246 895 1 19
246 978 1 14
246 990 1 15
246 993 1 10
247 194 1 9
247 267 1 19
247 284 1 9
247 301 1 8
247 363 1 19
247 403 1 8
247 412 1 6
247 413 1 5
247 495 1 11
247 530 1 4
247 544 1 11
247 757 1 3
247 933 1 13
248 49 1 16
248 160 1 19
248 195 1 8
248 213 1 6
248 277 1 15
248 287 1 11
248 402 1 0
248 607 1 1
248 661 1 2
248 676 1 6
248 724 1 10
248 760 1 1
248 887 1 15
248 910 1 7
248 983 1 8
249 91 1 1
249 115 1 14
249 166 1 7
249 225 1 11
249 340 1 10
249 343 1 9
249 434 1 0
249 557 1 9
249 567 1 15
249 571 1 13
249 658 1 5
249 794 1 7
249 798 1 18
249 867 1 7
249 962 1 5
250 20 1 6
250 146 1 10
250 201 1 11
250 207 1 1
250 339 1 6
250 341 1 17
250 451 1 19
250 467 1 13
250 523 1 4
250 645 1 5
250 686 1 4
250 697 1 6
250 776 1 16
250 867 1 16
250 993 1 11
251 216 1 2
251 252 1 2
251 293 1 18
251 399 1 0
251 416 1 4
251 492 1 5
251 598 1 19
251 703 1 18
251 722 1 6
251 736 1 12
251 764 1 3
251 887 1 13
251 887 1 8
251 937 1 4
251 977 1 9
252 73 1 14
252 77 1 11
252 163 1 11
252 199 1 10
252 250 1 7
252 279 1 2
252 292 1 13
252 308 1 5
252 492 1 6
252 504 1 7
252 524 1 5
252 571 1 17
252 615 1 5
252 680 1 0
252 793 1 0
252 883 1 6
253 7 1 9
253 12 1 6
253 55 1 10
253 122 1 12
253 193 1 19
253 382 1 16
253 459 1 13
253 539 1 4
253 541 1 6
253 556 1 19
253 586 1 0
253 710 1 17
253 717 1 4
253 949 1 10
253 999 1 7
254 42 1 1
254 54 1 7
254 54 1 0
254 143 1 4
254 165 1 14
254 313 1 9
254 394 1 6
254 567 1 11
254 625 1 4
254 662 1 7
254 728 1 1
254 752 1 13
254 856 1 11
254 927 1 8
254 952 1 18
255 3 1 10
255 36 1 0
255 92 1 5
255 139 1 0
255 398 1 11
255 510 1 19
255 525 1 4
255 640 1 19
255 647 1 13
255 718 1 12
255 784 1 5
255 802 1 7
255 812 1 12
255 837 1 2
255 845 1 4
255 970 1 12
255 984 1 10
256 230 1 8
256 481 1 16
256 486 1 8
256 505 1 5
256 511 1 13
256 561 1 10
256 573 1 6
256 594 1 2
256 621 1 17
256 622 1 16
256 667 1 1
256 724 1 13
256 761 1 7
256 953 1 2
256 997 1 13
257 61 1 13
257 134 1 3
257 188 1 19
257 290 1 16
257 321 1 5
257 340 1 12
257 384 1 10
257 415 1 10
257 432 1 9
257 501 1 12
257 552 1 19
257 719 1 1
257 721 1 17
258 8 1 12
258 23 1 8
258 211 1 8
258 211 1 17
258 225 1 17
258 329 1 9
258 506 1 6
258 558 1 18
258 581 1 4
258 595 1 13
258 648 1 9
258 683 1 5
258 751 1 3
258 824 1 10
259 174 1 14
259 304 1 12
259 368 1 14
259 451 1 19
259 626 1 12
259 653 1 4
259 654 1 16
259 739 1 19
259 860 1 1
259 863 1 15
259 891 1 1
259 968 1 10
259 984 1 1
260 39 1 3
260 76 1 13
260 121 1 19
260 226 1 6
260 236 1 14
260 295 1 19
260 317 1 4
260 326 1 11
260 426 1 7
260 502 1 8
260 563 1 1
260 630 1 11
260 696 1 16
261 30 1 3
261 186 1 2
261 209 1 3
261 273 1 7
261 332 1 1
261 456 1 14
261 464 1 19
261 546 1 11
261 566 1 4
261 679 1 15
261 708 1 19
261 749 1 8
261 750 1 14
261 819 1 11
261 864 1 19
261 911 1 12
261 946 1 18
262 179 1 5
262 217 1 18
262 250 1 2
262 262 1 19
262 298 1 4
262 461 1 8
262 524 1 0
262 549 1 11
262 582 1 16
262 617 1 7
262 633 1 1
262 781 1 10
262 859 1 4
262 867 1 2
262 913 1 18
263 32 1 13
263 145 1 16
263 230 1 5
263 255 1 13
263 259 1 9
263 366 1 6
263 383 1 7
263 423 1 11
263 425 1 18
263 489 1 5
263 517 1 7
263 559 1 1
263 629 1 9
263 809 1 18
263 930 1 4
264 15 1 3
264 149 1 13
264 152 1 14
264 155 1 8
264 189 1 9
264 212 1 1
264 330 1 3
264 351 1 16
264 467 1 3
264 654 1 10
264 746 1 17
264 781 1 7
265 105 1 9
265 216 1 13
265 391 1 17
265 425 1 14
265 656 1 0
265 706 1 0
265 762 1 19
265 842 1 0
265 949 1 4
265 952 1 15
265 969 1 0
265 981 1 5
265 986 1 12
265 994 1 12
266 113 1 12
266 173 1 14
266 275 1 4
266 307 1 2
266 352 1 7
266 373 1 13
266 388 1 12
266 396 1 9
266 790 1 3
266 790 1 15
266 812 1 18
266 818 1 0
266 878 1 2
266 921 1 6
266 982 1 14
267 88 1 18
267 109 1 14
267 123 1 5
267 132 1 17
267 272 1 0
267 362 1 15
267 366 1 7
267 405 1 18
267 427 1 12
267 436 1 4
267 563 1 0
267 684 1 0
267 738 1 4
267 831 1 18
267 949 1 13
268 7 1 7
268 67 1 14
268 141 1 9
268 215 1 7
268 296 1 14
268 310 1 18
268 402 1 17
268 456 1 6
268 460 1 6
268 496 1 17
268 648 1 2
268 702 1 6
268 705 1 18
268 746 1 13
268 788 1 8
268 877 1 0
268 921 1 15
268 946 1 0
269 65 1 9
269 230 1 14
269 267 1 1
269 271 1 1
269 341 1 19
269 355 1 6
269 432 1 2
269 488 1 18
269 582 1 0
269 658 1 8
269 709 1 16
269 826 1 17
269 830 1 16
269 858 1 7
269 929 1 17
269 936 1 3
270 51 1 18
270 204 1 10
270 221 1 4
270 288 1 9
270 388 1 15
270 515 1 6
270 526 1 19
270 733 1 6
270 805 1 3
270 835 1 17
270 897 1 18
270 933 1 9
270 987 1 10
271 165 1 15
271 220 1 3
271 238 1 6
271 256 1 12
271 266 1 6
271 355 1 5
271 437 1 6
271 533 1 2
271 584 1 18
271 618 1 19
271 717 1 8
271 720 1 0
271 791 1 14
272 45 1 1
272 123 1 12
272 131 1 19
272 198 1 9
272 275 1 14
272 351 1 7
272 452 1 5
272 631 1 10
272 693 1 5
272 697 1 14
272 822 1 0
272 836 1 15
272 877 1 7
272 991 1 18
272 998 1 17
273 40 1 5
273 111 1 10
273 238 1 6
273 267 1 8
273 312 1 13
273 325 1 2
273 369 1 9
273 388 1 18
273 401 1 15
273 450 1 13
273 466 1 3
273 477 1 19
273 511 1 17
273 522 1 8
273 908 1 15
274 18 1 0
274 28 1 10
274 259 1 16
274 279 1 18
274 279 1 8
274 383 1 2
274 422 1 14
274 449 1 1
274 459 1 14
274 475 1 12
274 662 1 13
274 717 1 4
274 912 1 0
274 912 1 13
275 25 1 13
275 73 1 8
275 194 1 18
275 303 1 11
275 367 1 16
275 412 1 8
275 425 1 17
275 482 1 18
275 558 1 4
275 605 1 9
275 617 1 18
275 650 1 4
275 688 1 12
276 54 1 14
276 67 1 18
276 159 1 2
276 311 1 15
276 317 1 0
276 407 1 13
276 449 1 12
276 479 1 3
276 679 1 16
276 724 1 4
276 900 1 12
276 980 1 1
277 54 1 3
277 111 1 3
277 173 1 5
277 194 1 14
277 265 1 11
277 272 1 7
277 289 1 12
277 290 1 8
277 315 1 1
277 353 1 0
277 470 1 8
277 662 1 16
277 762 1 16
277 763 1 19
277 789 1 17
277 808 1 9
277 923 1 5
278 66 1 12
278 81 1 11
278 124 1 9
278 247 1 1
278 293 1 16
278 302 1 3
278 424 1 17
278 460 1 10
278 494 1 9
278 591 1 9
278 593 1 4
278 662 1 0
278 728 1 15
278 745 1 12
278 855 1 5
278 992 1 1
279 18 1 6
279 83 1 11
279 123 1 5
279 140 1 4
279 195 1 7
279 200 1 16
279 353 1 1
279 412 1 18
279 644 1 16
279 647 1 9
279 688 1 9
279 940 1 8
280 7 1 14
280 60 1 12
280 87 1 8
280 204 1 10
280 257 1 7
280 261 1 3
280 405 1 6
280 471 1 6
280 486 1 3
280 580 1 10
280 642 1 2
280 699 1 3
280 709 1 18
280 747 1 1
280 767 1 8
280 930 1 5
280 980 1 10
280 987 1 1
281 112 1 14
281 174 1 5
281 323 1 14
281 397 1 10
281 408 1 6
281 419 1 10
281 469 1 7
281 482 1 2
281 505 1 18
281 530 1 2
281 585 1 18
281 651 1 8
281 750 1 4
281 830 1 12
281 975 1 2
282 38 1 6
282 50 1 9
282 244 1 2
282 269 1 5
282 307 1 18
282 330 1 5
282 371 1 8
282 486 1 18
282 506 1 4
282 576 1 19
282 626 1 3
282 923 1 10
282 993 1 7
283 19 1 15
283 159 1 13
283 203 1 11
283 235 1 3
283 304 1 6
283 338 1 8
283 354 1 9
283 363 1 15
283 450 1 11
283 525 1 7
283 571 1 1
283 807 1 5
283 921 1 3
283 965 1 9
283 970 1 8
284 5 1 14
284 15 1 4
284 54 1 8
284 131 1 19
284 264 1 0
284 274 1 19
284 345 1 11
284 427 1 16
284 506 1 16
284 542 1 5
284 549 1 4
284 668 1 4
284 682 1 9
284 810 1 14
285 78 1 11
285 139 1 2
285 145 1 14
285 169 1 19
285 256 1 9
285 280 1 6
285 398 1 5
285 399 1 6
285 457 1 13
285 581 1 5
285 644 1 19
285 758 1 19
285 853 1 13
285 880 1 10
285 890 1 15
285 976 1 0
286 16 1 1
286 16 1 11
286 36 1 4
286 74 1 7
286 135 1 2
286 230 1 9
286 262 1 9
286 317 1 14
286 426 1 7
286 448 1 3
286 516 1 5
286 681 1 9
286 870 1 11
286 892 1 15
286 997 1 0
287 27 1 7
287 70 1 0
287 142 1 8
287 255 1 12
287 402 1 6
287 443 1 7
287 549 1 1
287 574 1 6
287 709 1 4
287 840 1 18
287 854 1 17
287 965 1 2
288 31 1 0
288 55 1 8
288 232 1 2
288 247 1 2
288 284 1 14
288 312 1 16
288 344 1 1
288 370 1 4
288 511 1 4
288 577 1 6
288 628 1 7
288 739 1 6
288 799 1 6
288 923 1 14
288 951 1 12
288 989 1 17
289 28 1 6
289 99 1 16
289 140 1 5
289 151 1 15
289 175 1 16
289 205 1 12
289 329 1 15
289 523 1 11
289 652 1 1
289 704 1 6
289 724 1 5
289 751 1 13
289 759 1 4
289 800 1 3
289 828 1 1
289 923 1 12
290 138 1 19
290 224 1 2
290 314 1 8
290 352 1 8
290 422 1 6
290 425 1 11
290 443 1 19
290 545 1 18
290 653 1 3
290 672 1 9
290 827 1 0
290 837 1 15
290 844 1 10
290 849 1 5
290 873 1 1
290 946 1 2
291 21 1 15
291 153 1 6
291 229 1 3
291 281 1 14
291 347 1 6
291 379 1 11
291 413 1 1
291 519 1 19
291 622 1 14
291 645 1 1
291 737 1 11
291 818 1 7
291 889 1 3
291 996 1 10
292 82 1 6
292 264 1 11
292 334 1 1
292 336 1 0
292 363 1 7
292 438 1 13
292 490 1 1
292 582 1 1
292 602 1 9
292 667 1 15
292 725 1 3
292 830 1 9
292 993 1 9
293 99 1 2
293 240 1 4
293 359 1 16
293 435 1 13
293 472 1 16
293 506 1 18
293 515 1 4
293 546 1 7
293 550 1 9
293 714 1 6
293 786 1 8
293 800 1 11
293 826 1 1
294 48 1 14
294 75 1 13
294 223 1 12
294 289 1 10
294 292 1 17
294 307 1 15
294 370 1 1
294 423 1 4
294 466 1 8
294 524 1 12
294 591 1 13
294 629 1 4
294 676 1 13
294 700 1 6
294 717 1 13
294 807 1 12
294 869 1 13
295 179 1 16
295 270 1 16
295 305 1 0
295 388 1 8
295 454 1 14
295 686 1 12
295 697 1 1
295 717 1 4
295 776 1 2
295 803 1 0
295 850 1 16
295 853 1 4
295 882 1 14
295 946 1 4
295 958 1 16
296 278 1 0
296 310 1 15
296 339 1 11
296 394 1 11
296 400 1 0
296 434 1 7
296 458 1 13
296 526 1 9
296 558 1 19
296 564 1 5
296 591 1 0
296 705 1 0
296 867 1 17
296 919 1 0
296 962 1 15
297 131 1 4
297 368 1 10
297 378 1 12
297 437 1 13
297 523 1 5
297 652 1 19
297 781 1 17
297 842 1 14
297 850 1 8
297 930 1 15
297 939 1 4
297 962 1 19
298 23 1 11
298 37 1 15
298 173 1 4
298 263 1 19
298 405 1 14
298 494 1 7
298 538 1 17
298 665 1 13
298 678 1 16
298 737 1 14
298 747 1 6
298 838 1 11
298 896 1 11
298 930 1 13
299 80 1 12
299 145 1 6
299 152 1 17
299 156 1 14
299 319 1 6
299 382 1 4
299 446 1 13
299 509 1 14
299 605 1 5
299 612 1 19
299 633 1 14
299 655 1 14
299 702 1 18
299 710 1 15
299 722 1 0
300 29 1 7
300 110 1 14
300 126 1 16
300 185 1 7
300 369 1 15
300 378 1 3
300 414 1 1
300 535 1 9
300 581 1 4
300 790 1 7
300 830 1 19
300 847 1 9
300 902 1 3
300 912 1 19
300 954 1 2
301 1 1 8
301 120 1 3
301 140 1 17
301 187 1 12
301 426 1 15
301 437 1 9
301 455 1 1
301 551 1 17
301 598 1 16
301 734 1 10
301 760 1 13
301 782 1 14
301 908 1 17
302 84 1 4
302 114 1 3
302 184 1 2
302 192 1 18
302 208 1 15
302 361 1 15
302 369 1 15
302 442 1 18
302 444 1 4
302 531 1 0
302 578 1 8
302 626 1 5
302 716 1 10
302 956 1 11
302 959 1 12
303 171 1 1
303 329 1 6
303 452 1 2
303 514 1 18
303 614 1 10
303 650 1 14
303 662 1 13
303 663 1 15
303 703 1 8
303 750 1 16
303 768 1 5
303 972 1 8
303 980 1 0
304 38 1 8
304 57 1 5
304 203 1 3
304 221 1 11
304 265 1 15
304 383 1 9
304 387 1 9
304 410 1 9
304 438 1 9
304 441 1 6
304 459 1 1
304 491 1 16
304 499 1 15
304 551 1 4
304 566 1 17
304 662 1 7
304 697 1 7
304 903 1 10
304 974 1 5
305 89 1 11
305 147 1 14
305 151 1 16
305 169 1 18
305 177 1 5
305 277 1 0
305 334 1 10
305 426 1 6
305 479 1 6
305 555 1 4
305 678 1 11
305 716 1 1
305 740 1 7
305 772 1 10
305 833 1 1
306 13 1 11
306 255 1 8
306 296 1 16
306 320 1 7
306 401 1 5
306 495 1 4
306 509 1 1
306 699 1 1
306 810 1 13
306 812 1 10
306 828 1 5
306 857 1 12
306 858 1 14
306 880 1 11
307 74 1 6
307 82 1 14
307 156 1 2
307 220 1 2
307 221 1 6
307 269 1 8
307 278 1 19
307 281 1 18
307 349 1 0
307 407 1 8
307 525 1 13
307 537 1 13
307 636 1 12
307 684 1 13
307 975 1 15
308 71 1 4
308 177 1 8
308 183 1 19
308 261 1 10
308 395 1 8
308 488 1 1
308 522 1 2
308 523 1 11
308 528 1 9
308 695 1 13
308 700 1 12
308 783 1 8
308 917 1 0
308 926 1 18
308 949 1 5
309 115 1 2
309 157 1 11
309 319 1 8
309 623 1 16
309 628 1 0
309 656 1 19
309 658 1 0
309 776 1 5
309 776 1 16
309 821 1 19
309 834 1 6
309 838 1 19
309 843 1 16
309 880 1 0
310 35 1 17
310 50 1 15
310 89 1 1
310 126 1 9
310 141 1 6
310 275 1 9
310 384 1 6
310 395 1 17
310 450 1 8
310 464 1 17
310 778 1 14
310 813 1 13
310 881 1 3
310 957 1 4
311 93 1 8
311 159 1 16
311 229 1 3
311 231 1 3
311 289 1 18
311 297 1 6
311 317 1 12
311 363 1 0
311 382 1 19
311 773 1 13
311 818 1 12
311 960 1 15
311 984 1 11
312 18 1 7
312 178 1 1
312 198 1 19
312 260 1 17
312 273 1 6
312 388 1 18
312 389 1 14
312 456 1 4
312 471 1 6
312 486 1 18
312 501 1 2
312 541 1 2
312 541 1 13
312 645 1 12
312 676 1 14
312 818 1 7
313 56 1 5
313 133 1 9
313 208 1 5
313 283 1 3
313 297 1 9
313 325 1 6
313 452 1 1
313 487 1 3
313 494 1 6
313 736 1 13
313 762 1 13
313 778 1 8
313 840 1 14
313 949 1 6
313 981 1 10
314 6 1 3
314 117 1 6
314 154 1 15
314 161 1 1
314 245 1 9
314 278 1 2
314 311 1 10
314 367 1 19
314 410 1 12
314 508 1 14
314 514 1 5
314 526 1 18
314 968 1 1
315 183 1 15
315 397 1 2
315 438 1 11
315 507 1 4
315 523 1 15
315 607 1 2
315 616 1 19
315 621 1 5
315 736 1 18
315 841 1 6
315 849 1 6
315 991 1 4
316 37 1 16
316 73 1 11
316 86 1 5
316 86 1 2
316 100 1 8
316 117 1 13
316 240 1 7
316 462 1 4
316 463 1 2
316 495 1 13
316 524 1 6
316 591 1 8
316 663 1 0
316 828 1 10
316 858 1 12
316 859 1 0
317 288 1 7
317 297 1 14
317 297 1 14
317 342 1 15
317 418 1 5
317 420 1 9
317 531 1 13
317 585 1 0
317 586 1 10
317 619 1 1
317 637 1 6
317 709 1 8
317 757 1 2
317 790 1 13
317 867 1 12
317 872 1 9
318 35 1 14
318 272 1 14
318 375 1 2
318 418 1 10
318 482 1 5
318 487 1 10
318 529 1 5
318 537 1 1
318 685 1 14
318 785 1 12
318 851 1 0
318 868 1 11
318 924 1 12
319 56 1 5
319 196 1 1
319 236 1 4
319 268 1 16
319 270 1 18
319 279 1 12
319 382 1 8
319 483 1 12
319 597 1 4
319 609 1 1
319 670 1 2
319 706 1 16
320 50 1 19
320 89 1 2
320 172 1 14
320 216 1 17
320 237 1 7
320 425 1 3
320 456 1 17
320 600 1 3
320 603 1 11
320 787 1 8
320 832 1 4
320 884 1 0
320 918 1 16
320 973 1 1
321 29 1 19
321 52 1 16
321 91 1 15
321 214 1 15
321 243 1 15
321 305 1 10
321 378 1 2
321 497 1 6
321 555 1 5
321 564 1 16
321 636 1 12
321 834 1 2
321 885 1 2
321 934 1 7
322 80 1 13
322 86 1 0
322 166 1 8
322 228 1 1
322 253 1 1
322 310 1 8
322 409 1 17
322 410 1 6
322 433 1 8
322 527 1 13
322 874 1 16
322 985 1 5
322 999 1 4
323 42 1 7
323 92 1 0
323 106 1 8
323 389 1 8
323 401 1 14
323 520 1 17
323 576 1 15
323 630 1 1
323 666 1 7
323 681 1 15
323 684 1 10
323 842 1 17
323 848 1 19
323 865 1 6
323 972 1 3
324 119 1 14
324 195 1 14
324 204 1 4
324 227 1 9
324 354 1 9
324 383 1 18
324 398 1 3
324 429 1 6
324 436 1 0
324 443 1 0
324 547 1 7
324 576 1 1
324 879 1 14
324 910 1 0
325 10 1 3
325 233 1 6
325 357 1 0
325 427 1 12
325 450 1 18
325 578 1 19
325 619 1 16
325 666 1 11
325 672 1 5
325 824 1 3
325 830 1 12
325 878 1 3
325 907 1 2
325 908 1 8
325 951 1 8
325 957 1 16
325 974 1 18
326 132 1 19
326 158 1 3
326 219 1 4
326 291 1 5
326 296 1 7
326 332 1 14
326 357 1 7
326 402 1 15
326 413 1 0
326 432 1 7
326 622 1 0
326 664 1 11
326 747 1 15
326 760 1 6
326 852 1 5
326 894 1 10
327 80 1 10
327 203 1 3
327 225 1 10
327 226 1 14
327 266 1 4
327 471 1 4
327 694 1 13
327 723 1 11
327 733 1 1
327 740 1 13
327 861 1 11
327 866 1 4
327 921 1 14
328 31 1 17
328 96 1 10
328 222 1 0
328 257 1 4
328 321 1 12
328 360 1 7
328 535 1 14
328 621 1 12
328 662 1 3
328 699 1 1
328 764 1 11
328 776 1 12
328 909 1 3
328 912 1 13
328 980 1 5
329 41 1 12
329 55 1 13
329 232 1 5
329 262 1 18
329 482 1 16
329 527 1 8
329 625 1 8
329 679 1 3
329 732 1 5
329 750 1 12
329 806 1 4
329 876 1 5
329 884 1 2
329 909 1 2
330 38 1 14
330 193 1 2
330 256 1 3
330 280 1 18
330 307 1 2
330 332 1 1
330 366 1 5
330 457 1 12
330 469 1 12
330 479 1 1
330 482 1 7
330 769 1 12
330 772 1 0
330 801 1 7
330 815 1 11
330 987 1 12
331 48 1 14
331 64 1 5
331 115 1 19
331 156 1 1
331 248 1 11
331 256 1 9
331 259 1 7
331 520 1 18
331 600 1 13
331 603 1 10
331 639 1 15
331 649 1 6
331 693 1 9
331 831 1 5
331 834 1 5
331 910 1 8
331 916 1 5
331 943 1 2
331 961 1 13
332 6 1 12
332 116 1 3
332 131 1 7
332 421 1 13
332 424 1 4
332 431 1 8
332 536 1 5
332 553 1 7
332 574 1 0
332 576 1 5
332 820 1 17
332 933 1 2
332 962 1 10
333 112 1 10
333 148 1 7
333 204 1 6
333 244 1 7
333 425 1 10
333 433 1 9
333 489 1 9
333 584 1 5
333 599 1 12
333 677 1 5
333 710 1 5
333 763 1 8
333 838 1 1
333 853 1 5
333 986 1 13
334 75 1 6
334 89 1 18
334 203 1 13
334 217 1 7
334 230 1 15
334 231 1 4
334 262 1 2
334 265 1 14
334 359 1 12
334 503 1 15
334 561 1 16
334 593 1 16
334 688 1 5
334 735 1 19
334 977 1 5
334 999 1 0
335 15 1 11
335 52 1 1
335 76 1 15
335 234 1 2
335 239 1 16
335 272 1 13
335 279 1 8
335 389 1 14
335 479 1 15
335 535 1 1
335 537 1 10
335 650 1 12
335 684 1 8
335 703 1 8
335 732 1 7
335 784 1 12
335 829 1 16
336 55 1 13
336 203 1 8
336 248 1 6
336 250 1 16
336 306 1 11
336 367 1 7
336 489 1 2
336 496 1 7
336 501 1 1
336 509 1 13
336 713 1 18
336 713 1 15
336 772 1 0
336 784 1 18
336 788 1 17
336 796 1 17
336 931 1 14
337 2 1 8
337 13 1 15
337 37 1 19
337 58 1 17
337 69 1 15
337 74 1 14
337 140 1 6
337 231 1 8
337 294 1 4
337 348 1 2
337 400 1 18
337 465 1 8
337 470 1 8
338 38 1 3
338 213 1 4
338 441 1 6
338 483 1 19
338 513 1 2
338 571 1 18
338 636 1 9
338 651 1 18
338 658 1 5
338 697 1 10
338 703 1 8
338 905 1 14
338 970 1 1
339 112 1 4
339 181 1 2
339 264 1 9
339 320 1 17
339 360 1 16
339 373 1 17
339 433 1 1
339 452 1 0
339 496 1 12
339 804 1 6
339 820 1 9
339 866 1 16
339 927 1 2
339 970 1 7
339 991 1 9
340 116 1 18
340 267 1 13
340 284 1 1
340 358 1 2
340 384 1 16
340 395 1 11
340 442 1 7
340 479 1 14
340 606 1 16
340 643 1 5
340 673 1 9
340 740 1 11
340 793 1 9
341 5 1 3
341 31 1 2
341 121 1 0
341 124 1 8
341 254 1 4
341 371 1 6
341 575 1 2
341 626 1 18
341 633 1 14
341 651 1 4
341 696 1 2
341 728 1 8
341 864 1 18
341 893 1 7
342 207 1 10
342 245 1 12
342 400 1 4
342 403 1 5
342 495 1 4
342 544 1 11
342 578 1 3
342 592 1 5
342 662 1 3
342 668 1 17
342 698 1 16
342 723 1 9
342 789 1 19
342 957 1 2
343 42 1 9
343 137 1 5
343 156 1 5
343 266 1 14
343 332 1 2
343 370 1 18
343 374 1 4
343 403 1 19
343 498 1 15
343 654 1 6
343 664 1 17
343 696 1 0
343 715 1 8
343 805 1 5
344 31 1 2
344 117 1 9
344 178 1 14
344 192 1 5
344 244 1 8
344 261 1 2
344 405 1 14
344 447 1 4
344 510 1 12
344 614 1 19
344 721 1 15
344 797 1 5
344 802 1 15
344 831 1 15
345 139 1 4
345 161 1 3
345 169 1 2
345 208 1 18
345 291 1 5
345 437 1 0
345 540 1 6
345 555 1 7
345 573 1 5
345 575 1 9
345 665 1 16
345 757 1 17
345 759 1 5
345 842 1 5
345 886 1 0
345 958 1 19
346 43 1 7
346 75 1 7
346 126 1 4
346 253 1 3
346 278 1 16
346 453 1 18
346 579 1 1
346 616 1 7
346 677 1 3
346 758 1 3
346 790 1 5
346 794 1 3
346 881 1 19
346 897 1 11
346 902 1 8
346 914 1 7
346 958 1 10
347 149 1 0
347 202 1 18
347 296 1 6
347 392 1 15
347 427 1 10
347 427 1 0
347 467 1 19
347 475 1 1
347 497 1 11
347 584 1 7
347 629 1 1
347 725 1 16
347 810 1 6
347 881 1 19
347 893 1 0
347 973 1 13
348 190 1 1
348 244 1 15
348 344 1 9
348 497 1 10
348 605 1 18
348 614 1 9
348 701 1 7
348 776 1 9
348 781 1 17
348 786 1 2
348 804 1 10
348 969 1 19
348 991 1 16
349 104 1 8
349 124 1 16
349 229 1 5
349 251 1 14
349 252 1 2
349 322 1 7
349 528 1 10
349 669 1 7
349 673 1 17
349 683 1 18
349 717 1 13
349 857 1 13
349 897 1 17
349 987 1 11
350 88 1 16
350 92 1 13
350 297 1 18
350 337 1 10
350 400 1 10
350 412 1 13
350 457 1 3
350 473 1 12
350 498 1 18
350 534 1 6
350 544 1 10
350 655 1 15
350 734 1 6
350 990 1 2
351 8 1 5
351 45 1 2
351 102 1 7
351 117 1 11
351 210 1 5
351 230 1 15
351 316 1 16
351 329 1 11
351 467 1 13
351 550 1 8
351 664 1 0
351 677 1 8
351 768 1 2
351 775 1 17
351 781 1 5
352 48 1 1
352 54 1 13
352 126 1 3
352 165 1 11
352 191 1 0
352 293 1 16
352 354 1 3
352 367 1 17
352 370 1 4
352 548 1 12
352 583 1 12
352 601 1 7
352 625 1 0
352 786 1 18
352 792 1 18
352 873 1 17
352 907 1 19
353 81 1 13
353 110 1 6
353 189 1 12
353 194 1 3
353 344 1 10
353 358 1 15
353 370 1 7
353 371 1 12
353 488 1 9
353 521 1 4
353 566 1 19
353 590 1 10
353 638 1 1
353 748 1 15
353 773 1 6
353 991 1 0
354 8 1 17
354 122 1 11
354 126 1 18
354 206 1 4
354 286 1 19
354 356 1 6
354 601 1 3
354 602 1 2
354 761 1 16
354 800 1 14
354 811 1 14
354 817 1 6
354 822 1 9
354 830 1 0
354 839 1 11
354 851 1 18
354 957 1 7
355 20 1 12
355 33 1 5
355 138 1 12
355 238 1 2
355 476 1 9
355 514 1 18
355 577 1 5
355 672 1 1
355 773 1 9
355 823 1 7
355 840 1 2
355 850 1 4
355 897 1 9
355 946 1 11
356 21 1 3
356 202 1 2
356 307 1 0
356 357 1 10
356 419 1 11
356 427 1 15
356 489 1 13
356 563 1 10
356 626 1 6
356 668 1 13
356 707 1 15
356 969 1 7
356 983 1 8
357 51 1 11
357 71 1 13
357 116 1 10
357 410 1 11
357 493 1 7
357 496 1 16
357 512 1 19
357 553 1 12
357 566 1 6
357 631 1 17
357 722 1 0
357 851 1 11
357 933 1 6
358 21 1 16
358 46 1 9
358 100 1 2
358 308 1 7
358 384 1 0
358 384 1 13
358 462 1 6
358 569 1 16
358 636 1 3
358 636 1 5
358 891 1 8
358 904 1 9
358 977 1 8
359 228 1 0
359 342 1 13
359 421 1 0
359 651 1 14
359 707 1 11
359 738 1 0
359 756 1 1
359 761 1 5
359 763 1 4
359 800 1 0
359 872 1 8
359 897 1 5
359 929 1 7
360 50 1 16
360 208 1 18
360 283 1 2
360 362 1 0
360 475 1 10
360 613 1 9
360 789 1 4
360 897 1 16
360 953 1 1
360 983 1 5
361 16 1 12
361 50 1 19
361 92 1 4
361 121 1 10
361 209 1 8
361 229 1 15
361 230 1 19
361 327 1 11
361 371 1 0
361 411 1 19
361 932 1 9
361 934 1 6
361 946 1 13
361 966 1 19
361 991 1 6
362 6 1 8
362 46 1 0
362 69 1 6
362 181 1 2
362 245 1 16
362 246 1 18
362 374 1 12
362 412 1 8
362 422 1 16
362 462 1 17
362 507 1 5
362 524 1 0
362 682 1 8
362 692 1 14
362 707 1 7
362 832 1 4
362 850 1 3
363 37 1 6
363 164 1 11
363 245 1 13
363 283 1 5
363 347 1 3
363 381 1 16
363 395 1 7
363 414 1 17
363 580 1 0
363 634 1 4
363 655 1 1
363 714 1 17
363 733 1 8
363 781 1 17
363 919 1 4
364 95 1 10
364 111 1 4
364 144 1 5
364 164 1 9
364 240 1 3
364 246 1 5
364 356 1 1
364 375 1 4
364 582 1 3
364 604 1 10
364 627 1 19
364 628 1 2
364 628 1 10
364 652 1 16
364 740 1 3
364 754 1 18
365 2 1 2
365 41 1 6
365 73 1 12
365 87 1 8
365 164 1 8
365 248 1 4
365 395 1 11
365 453 1 7
365 490 1 4
365 505 1 18
365 518 1 19
365 613 1 13
365 848 1 5
365 913 1 1
365 913 1 8
365 984 1 2
366 76 1 16
366 113 1 3
366 260 1 19
366 327 1 2
366 343 1 8
366 423 1 8
366 443 1 11
366 466 1 0
366 534 1 2
366 550 1 11
366 693 1 2
366 947 1 4
366 984 1 18
367 21 1 9
367 232 1 0
367 253 1 13
367 277 1 13
367 313 1 19
367 439 1 2
367 457 1 0
367 479 1 13
367 643 1 7
367 692 1 2
367 808 1 11
367 862 1 3
367 934 1 1
367 951 1 18
368 46 1 0
368 85 1 0
368 219 1 12
368 279 1 11
368 330 1 19
368 430 1 8
368 585 1 11
368 597 1 6
368 598 1 18
368 787 1 13
368 830 1 3
368 911 1 3
368 930 1 7
368 937 1 4
369 155 1 12
369 231 1 4
369 289 1 3
369 307 1 5
369 333 1 11
369 337 1 2
369 476 1 4
369 508 1 7
369 598 1 18
369 742 1 1
369 840 1 19
370 18 1 13
370 101 1 19
370 129 1 6
370 255 1 6
370 388 1 4
370 410 1 6
370 589 1 8
370 650 1 15
370 909 1 17
371 24 1 13
371 99 1 6
371 128 1 16
371 179 1 2
371 198 1 18
371 200 1 11
371 247 1 11
371 326 1 7
371 376 1 1
371 619 1 15
371 627 1 12
371 630 1 8
371 637 1 10
371 748 1 7
371 815 1 10
372 273 1 1
372 324 1 4
372 343 1 6
372 393 1 1
372 413 1 1
372 468 1 15
372 484 1 11
372 517 1 4
372 563 1 7
372 597 1 2
372 628 1 1
372 990 1 11
373 39 1 3
373 88 1 14
373 89 1 16
373 179 1 13
373 207 1 2
373 223 1 3
373 226 1 18
373 283 1 4
373 415 1 13
373 461 1 11
373 491 1 14
373 531 1 11
373 588 1 8
373 825 1 1
373 828 1 17
373 950 1 13
374 111 1 19
374 145 1 19
374 164 1 0
374 200 1 14
374 279 1 8
374 313 1 15
374 400 1 11
374 582 1 8
374 638 1 16
374 810 1 10
374 853 1 8
374 921 1 9
374 921 1 1
374 955 1 5
374 986 1 19
375 52 1 4
375 90 1 8
375 177 1 9
375 185 1 2
375 232 1 17
375 239 1 15
375 254 1 7
375 371 1 19
375 394 1 7
375 567 1 8
375 684 1 5
375 688 1 11
375 703 1 15
375 705 1 7
375 891 1 4
375 896 1 18
376 18 1 7
376 35 1 13
376 88 1 10
376 93 1 2
376 97 1 11
376 101 1 12
376 126 1 19
376 189 1 1
376 236 1 14
376 248 1 8
376 305 1 12
376 346 1 18
376 405 1 12
376 473 1 12
376 509 1 13
376 734 1 10
376 805 1 15
376 921 1 11
377 142 1 12
377 159 1 11
377 161 1 17
377 343 1 4
377 375 1 4
377 443 1 8
377 510 1 14
377 588 1 14
377 601 1 11
377 611 1 3
377 791 1 15
377 797 1 13
377 918 1 15
377 954 1 12
378 77 1 5
378 336 1 1
378 338 1 11
378 346 1 17
378 443 1 3
378 514 1 18
378 520 1 16
378 549 1 0
378 556 1 12
378 673 1 7
378 721 1 12
378 721 1 13
378 732 1 9
378 877 1 4
378 996 1 19
379 299 1 19
379 405 1 18
379 407 1 3
379 459 1 16
379 473 1 8
379 509 1 17
379 607 1 11
379 759 1 8
379 772 1 1
379 826 1 5
379 943 1 1
380 203 1 9
380 344 1 19
380 358 1 19
380 415 1 7
380 479 1 3
380 667 1 18
380 714 1 0
380 731 1 8
380 732 1 0
380 794 1 11
380 822 1 6
380 842 1 16
380 871 1 19
380 880 1 19
380 889 1 14
380 893 1 19
381 21 1 11
381 174 1 19
381 206 1 11
381 352 1 5
381 353 1 8
381 393 1 6
381 427 1 0
381 455 1 12
381 486 1 11
381 568 1 7
381 601 1 14
381 643 1 1
381 660 1 4
381 793 1 0
381 874 1 0
382 45 1 12
382 116 1 6
382 147 1 16
382 184 1 16
382 214 1 17
382 491 1 19
382 561 1 6
382 577 1 5
382 680 1 3
382 710 1 8
382 766 1 3
382 773 1 4
382 784 1 11
382 849 1 18
382 875 1 14
382 881 1 14
383 55 1 5
383 71 1 4
383 127 1 1
383 133 1 18
383 143 1 5
383 231 1 8
383 322 1 19
383 322 1 2
383 571 1 18
383 668 1 5
383 768 1 9
383 781 1 7
383 804 1 17
383 889 1 17
383 939 1 8
384 8 1 3
384 262 1 15
384 262 1 2
384 352 1 16
384 454 1 2
384 502 1 9
384 593 1 2
384 669 1 2
384 692 1 18
384 870 1 6
384 933 1 3
384 961 1 8
384 995 1 16
385 7 1 11
385 57 1 9
385 78 1 11
385 102 1 7
385 247 1 9
385 259 1 10
385 467 1 2
385 484 1 3
385 550 1 8
385 556 1 3
385 626 1 9
385 644 1 18
385 701 1 0
385 753 1 5
385 904 1 0
386 106 1 10
386 152 1 12
386 185 1 13
386 333 1 8
386 409 1 18
386 455 1 10
386 495 1 11
386 610 1 11
386 658 1 8
386 691 1 12
386 723 1 2
386 796 1 8
386 821 1 9
387 42 1 9
387 122 1 14
387 129 1 14
387 324 1 10
387 361 1 5
387 371 1 11
387 423 1 8
387 439 1 6
387 482 1 7
387 511 1 8
387 577 1 18
387 816 1 0
387 817 1 4
387 977 1 15
387 982 1 19
388 6 1 7
388 12 1 8
388 30 1 1
388 57 1 17
388 257 1 14
388 296 1 0
388 330 1 17
388 439 1 0
388 444 1 10
388 609 1 17
388 658 1 19
388 849 1 3
388 875 1 16
389 77 1 6
389 203 1 15
389 285 1 0
389 302 1 2
389 466 1 11
389 504 1 9
389 592 1 8
389 722 1 17
389 732 1 0
389 831 1 12
389 935 1 15
389 941 1 18
389 945 1 7
390 253 1 1
390 257 1 2
390 357 1 16
390 416 1 18
390 542 1 3
390 707 1 14
390 747 1 8
390 753 1 5
390 767 1 14
390 829 1 3
390 836 1 15
390 840 1 3
390 867 1 11
390 958 1 6
390 962 1 3
391 61 1 18
391 62 1 12
391 133 1 2
391 146 1 11
391 370 1 6
391 408 1 11
391 519 1 7
391 550 1 9
391 586 1 9
391 604 1 9
391 643 1 1
391 933 1 7
391 959 1 12
392 319 1 6
392 349 1 1
392 362 1 3
392 390 1 10
392 395 1 6
392 409 1 4
392 532 1 2
392 571 1 8
392 619 1 12
392 620 1 8
392 705 1 13
392 711 1 15
392 843 1 11
393 94 1 15
393 105 1 19
393 160 1 11
393 193 1 15
393 335 1 8
393 385 1 16
393 406 1 11
393 499 1 1
393 562 1 0
393 580 1 16
393 591 1 9
393 624 1 6
394 16 1 14
394 107 1 15
394 156 1 13
394 157 1 7
394 277 1 9
394 285 1 2
394 286 1 16
394 421 1 12
394 520 1 10
394 669 1 6
394 740 1 13
394 812 1 7
395 31 1 14
395 61 1 10
395 151 1 4
395 203 1 5
395 215 1 17
395 302 1 10
395 335 1 15
395 343 1 1
395 519 1 6
395 585 1 0
395 629 1 8
395 759 1 11
395 779 1 17
395 806 1 11
395 843 1 11
395 869 1 10
395 941 1 4
395 989 1 9
396 5 1 6
396 107 1 5
396 124 1 9
396 226 1 1
396 236 1 4
396 315 1 14
396 315 1 3
396 324 1 13
396 484 1 9
396 697 1 12
396 697 1 6
396 754 1 17
396 884 1 4
396 934 1 7
396 958 1 14
397 59 1 13
397 195 1 11
397 212 1 1
397 321 1 8
397 345 1 7
397 362 1 12
397 467 1 17
397 580 1 2
397 620 1 14
397 630 1 10
397 683 1 3
397 789 1 4
397 854 1 10
397 855 1 1
397 932 1 7
398 21 1 0
398 32 1 10
398 158 1 13
398 206 1 12
398 604 1 2
398 615 1 18
398 676 1 1
398 685 1 1
398 786 1 6
398 797 1 5
398 835 1 14
398 846 1 8
398 927 1 7
398 961 1 10
398 974 1 19
398 991 1 10
399 32 1 1
399 46 1 4
399 80 1 7
399 144 1 6
399 302 1 12
399 332 1 2
399 391 1 18
399 494 1 8
399 556 1 4
399 646 1 15
399 797 1 11
399 962 1 18
399 963 1 7
399 972 1 8
400 47 1 16
400 123 1 13
400 147 1 11
400 321 1 6
400 365 1 0
400 552 1 9
400 553 1 7
400 603 1 16
400 660 1 14
400 710 1 8
400 717 1 10
400 776 1 17
400 820 1 13
400 833 1 13
400 902 1 15
400 912 1 2
400 927 1 7
401 352 1 9
401 384 1 15
401 408 1 16
401 466 1 9
401 523 1 6
401 588 1 8
401 669 1 9
401 678 1 0
401 697 1 14
401 704 1 8
401 704 1 13
401 737 1 1
401 815 1 11
401 996 1 5
402 58 1 5
402 139 1 6
402 241 1 3
402 250 1 19
402 262 1 11
402 317 1 9
402 344 1 11
402 376 1 7
402 491 1 9
402 493 1 1
402 564 1 4
402 619 1 14
402 989 1 14
403 42 1 16
403 85 1 16
403 111 1 1
403 143 1 5
403 324 1 16
403 349 1 1
403 373 1 8
403 389 1 8
403 399 1 8
403 438 1 9
403 527 1 11
403 555 1 7
403 654 1 18
403 743 1 16
403 895 1 8
404 6 1 18
404 79 1 10
404 231 1 12
404 305 1 3
404 445 1 5
404 467 1 4
404 498 1 1
404 597 1 0
404 608 1 13
404 674 1 1
404 693 1 1
404 706 1 5
404 882 1 3
404 930 1 2
404 939 1 7
404 966 1 19
405 29 1 6
405 57 1 2
405 136 1 19
405 140 1 11
405 160 1 10
405 162 1 5
405 205 1 7
405 267 1 1
405 362 1 8
405 466 1 17
405 548 1 17
405 562 1 11
405 607 1 2
406 83 1 11
406 161 1 6
406 206 1 15
406 235 1 0
406 324 1 13
406 369 1 3
406 458 1 0
406 561 1 15
406 566 1 8
406 589 1 18
406 624 1 4
406 641 1 1
406 660 1 4
406 726 1 10
406 848 1 14
407 111 1 16
407 121 1 8
407 261 1 15
407 306 1 10
407 516 1 10
407 529 1 2
407 672 1 6
407 795 1 7
407 827 1 15
407 830 1 19
407 846 1 1
407 861 1 12
407 891 1 15
407 931 1 2
407 972 1 17
408 30 1 16
408 52 1 1
408 68 1 15
408 163 1 9
408 261 1 17
408 376 1 6
408 395 1 11
408 435 1 12
408 569 1 11
408 665 1 7
408 800 1 1
408 848 1 16
408 863 1 0
408 932 1 2
409 100 1 1
409 109 1 3
409 207 1 6
409 231 1 1
409 339 1 11
409 412 1 7
409 430 1 19
409 434 1 4
409 495 1 17
409 506 1 12
409 565 1 1
409 620 1 10
409 855 1 18
409 892 1 4
410 17 1 12
410 49 1 4
410 103 1 5
410 177 1 6
410 313 1 2
410 330 1 17
410 365 1 10
410 401 1 16
410 504 1 8
410 536 1 6
410 537 1 2
410 584 1 19
410 623 1 4
410 654 1 3
410 683 1 10
410 874 1 3
410 907 1 11
410 926 1 17
410 956 1 15
411 36 1 6
411 91 1 16
411 173 1 8
411 205 1 6
411 445 1 5
411 518 1 12
411 557 1 12
411 691 1 5
411 749 1 13
411 785 1 14
411 793 1 3
411 880 1 15
412 224 1 12
412 256 1 15
412 443 1 13
412 510 1 16
412 528 1 6
412 639 1 1
412 701 1 1
412 745 1 13
412 833 1 18
412 873 1 18
412 889 1 1
412 929 1 18
412 941 1 8
412 973 1 7
412 996 1 17
413 217 1 10
413 297 1 4
413 335 1 18
413 396 1 10
413 427 1 19
413 452 1 7
413 527 1 8
413 687 1 11
413 747 1 7
413 829 1 15
413 928 1 1
413 931 1 5
413 933 1 12
414 34 1 0
414 96 1 17
414 342 1 7
414 357 1 0
414 420 1 0
414 472 1 2
414 478 1 15
414 578 1 0
414 654 1 9
414 657 1 18
414 716 1 14
414 821 1 10
415 76 1 7
415 295 1 16
415 324 1 8
415 583 1 8
415 590 1 16
415 606 1 1
415 613 1 13
415 669 1 17
415 781 1 13
415 979 1 2
415 981 1 18
415 992 1 10
416 111 1 6
416 270 1 2
416 329 1 18
416 369 1 19
416 381 1 8
416 546 1 8
416 683 1 11
416 803 1 4
416 819 1 0
416 894 1 14
416 932 1 17
416 965 1 9
416 993 1 6
417 64 1 6
417 92 1 7
417 95 1 11
417 158 1 7
417 166 1 13
417 213 1 1
417 283 1 5
417 284 1 15
417 410 1 14
417 497 1 12
417 508 1 8
417 592 1 13
417 623 1 0
417 635 1 10
417 740 1 7
417 999 1 11
418 56 1 15
418 84 1 4
418 197 1 14
418 215 1 16
418 253 1 8
418 340 1 15
418 349 1 10
418 394 1 17
418 404 1 13
418 412 1 17
418 428 1 5
418 785 1 0
418 813 1 5
418 990 1 8
419 28 1 18
419 51 1 6
419 61 1 3
419 100 1 5
419 124 1 2
419 186 1 18
419 260 1 2
419 291 1 19
419 386 1 8
419 386 1 16
419 466 1 8
419 609 1 11
419 644 1 15
419 809 1 7
419 857 1 11
420 132 1 16
420 292 1 4
420 339 1 1
420 354 1 8
420 447 1 0
420 479 1 10
420 514 1 9
420 543 1 9
420 544 1 15
420 567 1 14
420 622 1 12
420 735 1 19
420 768 1 0
420 787 1 6
420 868 1 15
420 990 1 3
421 143 1 16
421 175 1 16
421 245 1 9
421 267 1 17
421 300 1 7
421 348 1 0
421 436 1 12
421 540 1 13
421 608 1 6
421 637 1 0
421 738 1 0
421 756 1 16
421 812 1 12
422 61 1 2
422 162 1 18
422 197 1 13
422 203 1 14
422 220 1 12
422 264 1 13
422 283 1 1
422 392 1 8
422 437 1 5
422 449 1 0
422 505 1 8
422 612 1 18
422 706 1 12
422 778 1 17
422 930 1 1
423 146 1 10
423 252 1 18
423 415 1 12
423 429 1 16
423 543 1 14
423 550 1 1
423 636 1 3
423 639 1 10
423 647 1 15
423 662 1 15
423 671 1 3
423 680 1 17
423 699 1 14
423 731 1 17
423 741 1 10
424 35 1 16
424 110 1 17
424 194 1 15
424 253 1 8
424 449 1 9
424 451 1 13
424 597 1 15
424 635 1 17
424 649 1 14
424 656 1 3
424 673 1 3
424 688 1 1
424 741 1 17
424 990 1 4
425 41 1 6
425 96 1 19
425 288 1 8
425 307 1 12
425 356 1 17
425 403 1 11
425 503 1 7
425 516 1 13
425 777 1 3
425 819 1 4
425 887 1 11
425 918 1 15
425 985 1 18
426 58 1 1
426 184 1 15
426 225 1 19
426 264 1 12
426 266 1 10
426 339 1 11
426 351 1 0
426 461 1 8
426 560 1 11
426 660 1 3
426 717 1 5
426 740 1 10
426 864 1 18
427 49 1 6
427 148 1 9
427 153 1 4
427 285 1 0
427 288 1 7
427 347 1 11
427 370 1 1
427 558 1 8
427 700 1 8
427 735 1 17
427 887 1 6
427 910 1 0
427 932 1 8
427 964 1 3
427 966 1 11
428 31 1 6
428 69 1 10
428 212 1 9
428 350 1 17
428 403 1 4
428 421 1 17
428 672 1 17
428 763 1 1
428 770 1 13
428 803 1 5
428 837 1 12
428 968 1 5
428 995 1 1
429 75 1 7
429 240 1 6
429 311 1 11
429 318 1 9
429 432 1 7
429 447 1 15
429 463 1 9
429 526 1 19
429 579 1 1
429 593 1 14
429 722 1 17
429 929 1 7
430 248 1 19
430 261 1 12
430 263 1 6
430 399 1 9
430 447 1 11
430 474 1 8
430 520 1 8
430 565 1 7
430 572 1 3
430 579 1 11
430 638 1 1
430 798 1 19
431 116 1 14
431 177 1 18
431 202 1 6
431 358 1 4
431 411 1 9
431 427 1 7
431 495 1 8
431 541 1 19
431 600 1 5
431 605 1 6
431 774 1 19
431 822 1 14
431 839 1 18
431 999 1 10
432 242 1 11
432 305 1 16
432 323 1 17
432 342 1 7
432 460 1 13
432 554 1 15
432 615 1 19
432 713 1 16
432 796 1 10
432 928 1 8
432 930 1 10
432 955 1 18
432 956 1 9
433 141 1 4
433 141 1 1
433 189 1 13
433 323 1 15
433 335 1 18
433 373 1 6
433 432 1 1
433 504 1 12
433 685 1 0
433 709 1 2
433 731 1 1
433 772 1 16
433 828 1 6
433 878 1 17
433 961 1 19
434 107 1 10
434 125 1 6
434 175 1 6
434 301 1 14
434 365 1 6
434 399 1 18
434 642 1 17
434 684 1 14
434 829 1 9
434 923 1 18
434 989 1 2
435 40 1 2
435 125 1 4
435 134 1 10
435 134 1 9
435 185 1 12
435 223 1 6
435 534 1 18
435 569 1 17
435 628 1 0
435 655 1 10
435 697 1 7
435 729 1 12
435 911 1 2
436 11 1 14
436 78 1 10
436 156 1 8
436 163 1 12
436 276 1 19
436 306 1 10
436 388 1 15
436 510 1 13
436 546 1 8
436 643 1 12
436 727 1 17
436 766 1 17
436 797 1 10
436 923 1 1
436 932 1 8
436 970 1 1
436 983 1 19
437 40 1 16
437 95 1 4
437 204 1 12
437 372 1 13
437 390 1 12
437 414 1 5
437 510 1 12
437 519 1 2
437 523 1 3
437 588 1 5
437 693 1 19
437 696 1 8
437 753 1 17
437 793 1 2
437 854 1 7
437 918 1 18
438 33 1 16
438 162 1 6
438 303 1 2
438 315 1 19
438 365 1 18
438 421 1 16
438 486 1 8
438 528 1 5
438 556 1 6
438 581 1 8
438 585 1 9
438 895 1 1
439 24 1 6
439 123 1 14
439 164 1 17
439 257 1 1
439 462 1 6
439 479 1 0
439 493 1 11
439 561 1 7
439 562 1 5
439 568 1 11
439 670 1 1
439 691 1 0
439 709 1 13
439 735 1 16
440 201 1 2
440 214 1 14
440 254 1 8
440 255 1 9
440 266 1 8
440 294 1 3
440 358 1 16
440 394 1 8
440 431 1 4
440 615 1 12
440 669 1 17
440 692 1 18
440 711 1 17
440 723 1 0
440 888 1 11
440 955 1 16
441 37 1 2
441 69 1 10
441 90 1 18
441 99 1 19
441 151 1 8
441 176 1 12
441 225 1 19
441 230 1 18
441 335 1 4
441 388 1 7
441 414 1 13
441 456 1 8
441 538 1 8
441 539 1 4
441 641 1 11
441 643 1 3
441 860 1 4
442 44 1 7
442 158 1 17
442 199 1 18
442 336 1 16
442 407 1 19
442 487 1 6
442 505 1 0
442 560 1 8
442 567 1 15
442 628 1 0
442 734 1 11
442 846 1 4
442 956 1 4
443 91 1 18
443 126 1 1
443 133 1 4
443 168 1 5
443 265 1 16
443 355 1 5
443 505 1 8
443 569 1 13
443 649 1 17
443 705 1 7
443 720 1 11
443 740 1 2
443 768 1 15
443 871 1 3
443 942 1 12
443 966 1 8
444 183 1 17
444 189 1 3
444 257 1 11
444 280 1 4
444 382 1 19
444 485 1 6
444 512 1 4
444 799 1 13
444 800 1 7
444 894 1 5
444 937 1 1
444 948 1 8
445 6 1 18
445 163 1 3
445 184 1 12
445 210 1 19
445 238 1 15
445 335 1 12
445 407 1 7
445 417 1 16
445 511 1 15
445 738 1 3
445 894 1 6
445 931 1 15
445 937 1 14
446 52 1 13
446 159 1 10
446 176 1 9
446 225 1 13
446 274 1 4
446 275 1 16
446 322 1 8
446 424 1 6
446 546 1 2
446 758 1 13
446 789 1 6
446 792 1 4
446 815 1 9
446 865 1 17
447 38 1 7
447 69 1 6
447 114 1 4
447 237 1 2
447 302 1 18
447 312 1 15
447 329 1 4
447 366 1 8
447 429 1 12
447 556 1 1
447 659 1 16
447 676 1 7
447 798 1 12
447 873 1 11
448 24 1 1
448 173 1 6
448 282 1 6
448 307 1 0
448 334 1 2
448 390 1 18
448 476 1 11
448 478 1 8
448 500 1 9
448 590 1 7
448 710 1 1
448 821 1 10
448 913 1 16
449 151 1 16
449 157 1 3
449 297 1 18
449 407 1 19
449 534 1 11
449 581 1 7
449 593 1 8
449 670 1 10
449 703 1 15
449 711 1 0
449 761 1 11
449 780 1 19
449 888 1 9
449 910 1 7
450 2 1 15
450 101 1 10
450 154 1 0
450 227 1 5
450 411 1 2
450 529 1 15
450 639 1 16
450 799 1 12
450 830 1 7
450 931 1 7
450 997 1 2
451 5 1 9
451 13 1 7
451 142 1 19
451 191 1 4
451 219 1 9
451 222 1 14
451 267 1 10
451 334 1 4
451 386 1 11
451 406 1 12
451 436 1 14
451 479 1 17
451 547 1 4
451 970 1 11
452 4 1 13
452 30 1 0
452 36 1 13
452 86 1 10
452 143 1 15
452 186 1 18
452 272 1 7
452 332 1 11
452 347 1 13
452 422 1 1
452 469 1 4
452 622 1 15
452 650 1 18
452 706 1 11
452 810 1 2
452 816 1 15
452 920 1 1
453 82 1 7
453 111 1 9
453 223 1 0
453 228 1 1
453 389 1 11
453 402 1 16
453 454 1 0
453 471 1 6
453 587 1 17
453 599 1 11
453 695 1 7
453 804 1 9
453 810 1 1
453 833 1 1
453 873 1 0
454 86 1 4
454 138 1 13
454 165 1 0
454 186 1 7
454 297 1 8
454 330 1 6
454 701 1 19
454 775 1 6
454 854 1 17
454 861 1 11
454 864 1 12
454 917 1 1
455 10 1 6
455 103 1 2
455 134 1 1
455 167 1 18
455 177 1 15
455 204 1 16
455 310 1 8
455 338 1 11
455 628 1 19
455 687 1 8
455 704 1 4
455 716 1 9
455 769 1 6
456 47 1 3
456 116 1 9
456 177 1 0
456 210 1 16
456 339 1 11
456 376 1 4
456 433 1 19
456 462 1 4
456 607 1 11
456 609 1 11
456 613 1 3
456 776 1 10
456 902 1 6
456 925 1 19
456 953 1 0
457 8 1 10
457 12 1 9
457 134 1 1
457 162 1 6
457 484 1 17
457 528 1 6
457 555 1 5
457 573 1 1
457 615 1 12
457 676 1 16
457 785 1 0
457 785 1 7
457 903 1 19
457 936 1 14
457 959 1 13
458 148 1 11
458 281 1 3
458 347 1 14
458 350 1 3
458 389 1 8
458 480 1 7
458 496 1 17
458 508 1 0
458 543 1 19
458 588 1 4
458 682 1 12
458 695 1 14
458 707 1 17
458 873 1 16
459 69 1 18
459 92 1 1
459 98 1 0
459 269 1 10
459 424 1 0
459 450 1 17
459 482 1 14
459 506 1 0
459 620 1 1
459 624 1 18
459 747 1 16
459 792 1 10
459 957 1 15
460 8 1 10
460 64 1 6
460 73 1 6
460 89 1 9
460 143 1 11
460 150 1 11
460 259 1 7
460 287 1 7
460 300 1 19
460 314 1 5
460 363 1 1
460 378 1 19
460 431 1 19
460 445 1 0
460 453 1 14
460 894 1 9
460 940 1 13
460 994 1 19
461 55 1 16
461 60 1 5
461 307 1 6
461 410 1 6
461 461 1 11
461 520 1 7
461 568 1 1
461 599 1 3
461 745 1 15
461 779 1 10
461 796 1 14
461 812 1 15
461 887 1 0
462 46 1 2
462 114 1 3
462 191 1 10
462 210 1 16
462 348 1 7
462 360 1 6
462 363 1 7
462 381 1 7
462 421 1 13
462 458 1 9
462 559 1 14
462 617 1 14
462 698 1 19
462 704 1 3
462 863 1 16
462 981 1 10
463 45 1 9
463 91 1 13
463 119 1 13
463 232 1 14
463 271 1 12
463 282 1 18
463 315 1 1
463 378 1 8
463 566 1 0
463 585 1 2
463 741 1 15
463 828 1 14
463 877 1 3
463 965 1 16
464 7 1 11
464 24 1 15
464 32 1 19
464 86 1 7
464 93 1 8
464 124 1 13
464 217 1 8
464 274 1 17
464 369 1 11
464 411 1 17
464 704 1 13
464 762 1 3
465 48 1 15
465 280 1 6
465 287 1 2
465 451 1 3
465 463 1 11
465 464 1 19
465 571 1 7
465 643 1 1
465 706 1 19
465 823 1 13
465 903 1 9
465 918 1 1
466 47 1 8
466 55 1 13
466 113 1 4
466 166 1 2
466 268 1 12
466 278 1 1
466 382 1 13
466 412 1 15
466 481 1 2
466 622 1 15
466 645 1 4
466 695 1 4
466 771 1 17
466 866 1 6
466 905 1 13
467 67 1 3
467 78 1 2
467 223 1 3
467 270 1 0
467 277 1 19
467 430 1 5
467 450 1 1
467 472 1 8
467 538 1 13
467 654 1 11
467 680 1 15
467 693 1 2
467 721 1 19
467 744 1 11
467 817 1 0
468 17 1 10
468 42 1 15
468 123 1 9
468 178 1 16
468 199 1 6
468 304 1 0
468 329 1 6
468 364 1 18
468 446 1 3
468 472 1 1
468 479 1 15
468 514 1 10
468 562 1 6
468 700 1 8
468 781 1 17
468 790 1 1
468 955 1 0
469 48 1 14
469 51 1 4
469 78 1 8
469 94 1 13
469 200 1 13
469 300 1 16
469 384 1 15
469 393 1 2
469 770 1 18
469 786 1 11
469 805 1 3
469 847 1 12
469 860 1 16
469 874 1 8
469 895 1 5
469 932 1 0
470 219 1 10
470 257 1 2
470 284 1 17
470 381 1 3
470 418 1 5
470 422 1 4
470 448 1 19
470 590 1 16
470 693 1 3
470 814 1 17
470 817 1 8
470 830 1 19
470 837 1 5
470 924 1 2
471 21 1 9
471 71 1 2
471 183 1 3
471 314 1 10
471 327 1 12
471 344 1 8
471 525 1 11
471 548 1 2
471 591 1 2
471 717 1 1
471 733 1 0
471 784 1 19
471 894 1 8
471 990 1 19
472 65 1 1
472 76 1 13
472 83 1 2
472 91 1 15
472 165 1 3
472 185 1 19
472 236 1 17
472 466 1 7
472 507 1 0
472 563 1 5
472 586 1 13
472 671 1 17
472 697 1 2
472 915 1 10
472 961 1 19
473 340 1 6
473 516 1 4
473 518 1 7
473 543 1 1
473 662 1 5
473 710 1 16
473 725 1 18
473 785 1 18
473 821 1 6
473 869 1 19
473 903 1 1
473 916 1 0
473 956 1 1
474 27 1 1
474 30 1 10
474 48 1 6
474 137 1 11
474 161 1 13
474 268 1 13
474 323 1 10
474 515 1 4
474 564 1 19
474 581 1 10
474 604 1 4
474 617 1 6
474 794 1 2
474 813 1 13
474 840 1 0
474 942 1 16
474 981 1 19
475 273 1 14
475 333 1 2
475 333 1 6
475 389 1 8
475 474 1 2
475 689 1 9
475 750 1 1
475 753 1 9
475 773 1 18
475 808 1 1
475 838 1 19
475 913 1 18
475 921 1 5
475 925 1 16
475 979 1 13
476 79 1 3
476 223 1 15
476 411 1 5
476 489 1 6
476 597 1 6
476 612 1 11
476 673 1 17
476 684 1 7
476 700 1 12
476 708 1 18
476 793 1 2
476 800 1 1
476 823 1 7
476 922 1 0
477 14 1 2
477 54 1 17
477 104 1 13
477 575 1 14
477 634 1 1
477 647 1 8
477 752 1 5
477 762 1 1
477 789 1 2
477 810 1 2
477 837 1 19
477 905 1 10
477 967 1 6
478 35 1 3
478 139 1 2
478 236 1 18
478 244 1 19
478 270 1 12
478 407 1 1
478 489 1 7
478 563 1 19
478 781 1 5
478 807 1 3
478 857 1 8
478 886 1 3
478 948 1 2
479 2 1 5
479 74 1 3
479 150 1 4
479 158 1 16
479 240 1 15
479 466 1 1
479 682 1 16
479 682 1 19
479 688 1 6
479 952 1 4
479 975 1 10
480 11 1 17
480 89 1 6
480 222 1 14
480 253 1 1
480 278 1 9
480 335 1 8
480 352 1 1
480 422 1 1
480 471 1 18
480 622 1 5
480 710 1 14
480 781 1 8
480 845 1 7
480 898 1 0
480 908 1 16
480 927 1 16
480 988 1 15
481 71 1 2
481 96 1 15
481 132 1 11
481 169 1 17
481 216 1 9
481 242 1 10
481 244 1 9
481 464 1 1
481 612 1 0
481 629 1 2
481 709 1 6
481 911 1 5
481 956 1 19
481 964 1 8
481 973 1 16
481 994 1 2
482 219 1 2
482 307 1 1
482 406 1 8
482 421 1 1
482 662 1 3
482 732 1 14
482 736 1 19
482 756 1 19
482 776 1 11
482 810 1 3
482 948 1 15
483 51 1 4
483 257 1 12
483 303 1 3
483 311 1 5
483 328 1 15
483 545 1 8
483 609 1 1
483 646 1 2
483 653 1 3
483 818 1 2
483 825 1 7
483 859 1 10
483 980 1 11
483 989 1 9
484 202 1 5
484 230 1 6
484 236 1 19
484 291 1 12
484 346 1 2
484 408 1 18
484 610 1 8
484 698 1 3
484 748 1 18
484 862 1 2
484 864 1 11
485 39 1 9
485 114 1 19
485 133 1 15
485 136 1 17
485 190 1 15
485 248 1 16
485 321 1 5
485 395 1 9
485 707 1 3
485 861 1 7
485 892 1 1
485 904 1 5
485 948 1 6
485 984 1 5
486 54 1 4
486 82 1 12
486 99 1 1
486 129 1 12
486 287 1 6
486 395 1 19
486 421 1 13
486 452 1 16
486 483 1 3
486 636 1 1
486 638 1 17
486 800 1 8
486 903 1 10
486 958 1 17
487 72 1 13
487 85 1 9
487 117 1 11
487 223 1 19
487 226 1 11
487 237 1 15
487 263 1 17
487 293 1 7
487 362 1 3
487 426 1 8
487 614 1 11
487 620 1 15
487 742 1 7
487 744 1 13
487 841 1 17
488 49 1 8
488 119 1 10
488 119 1 4
488 146 1 6
488 257 1 9
488 336 1 1
488 366 1 17
488 450 1 19
488 554 1 9
488 557 1 13
488 560 1 6
488 593 1 11
488 659 1 11
488 693 1 8
488 942 1 7
489 74 1 6
489 129 1 5
489 218 1 2
489 251 1 12
489 317 1 3
489 361 1 13
489 509 1 17
489 537 1 5
489 592 1 1
489 649 1 3
489 670 1 12
489 672 1 16
489 754 1 4
489 903 1 17
489 967 1 1
489 974 1 1
490 45 1 6
490 46 1 12
490 277 1 12
490 325 1 5
490 421 1 18
490 498 1 18
490 521 1 12
490 643 1 1
490 703 1 17
490 782 1 19
490 792 1 9
490 861 1 12
491 13 1 7
491 39 1 13
491 115 1 2
491 217 1 8
491 453 1 14
491 529 1 15
491 532 1 13
491 746 1 18
491 749 1 8
491 756 1 18
491 870 1 13
491 883 1 12
491 984 1 9
492 65 1 8
492 93 1 1
492 244 1 15
492 275 1 9
492 387 1 19
492 392 1 13
492 524 1 3
492 546 1 12
492 674 1 14
492 702 1 10
492 741 1 15
492 753 1 8
492 836 1 14
492 857 1 13
492 880 1 7
493 44 1 4
493 59 1 5
493 62 1 0
493 115 1 17
493 224 1 18
493 345 1 12
493 390 1 6
493 514 1 2
493 553 1 2
493 555 1 9
493 580 1 18
493 638 1 8
493 648 1 7
493 744 1 18
493 902 1 8
493 945 1 12
494 123 1 0
494 177 1 11
494 263 1 5
494 281 1 17
494 293 1 18
494 441 1 4
494 443 1 10
494 465 1 10
494 594 1 19
494 604 1 12
494 609 1 4
494 634 1 19
494 793 1 14
494 813 1 12
494 817 1 7
494 852 1 12
494 877 1 18
495 2 1 3
495 119 1 1
495 153 1 16
495 277 1 6
495 353 1 0
495 384 1 2
495 409 1 0
495 441 1 18
495 462 1 13
495 574 1 15
495 638 1 8
495 711 1 11
495 779 1 19
495 793 1 13
495 907 1 3
495 907 1 8
495 947 1 4
496 33 1 18
496 97 1 11
496 115 1 16
496 150 1 7
496 267 1 19
496 369 1 17
496 391 1 12
496 402 1 4
496 472 1 13
496 599 1 15
496 762 1 5
496 781 1 0
496 849 1 2
497 12 1 4
497 98 1 17
497 178 1 1
497 206 1 14
497 223 1 11
497 279 1 3
497 295 1 1
497 298 1 3
497 380 1 2
497 579 1 9
497 826 1 16
497 854 1 5
498 150 1 1
498 164 1 5
498 230 1 2
498 245 1 10
498 255 1 11
498 260 1 6
498 374 1 2
498 382 1 18
498 429 1 1
498 430 1 18
498 567 1 13
498 569 1 8
498 719 1 19
498 770 1 15
498 787 1 18
498 958 1 17
498 979 1 3
499 45 1 3
499 279 1 1
499 313 1 17
499 391 1 0
499 420 1 3
499 424 1 5
499 438 1 17
499 521 1 3
499 571 1 12
499 637 1 16
499 665 1 5
499 719 1 11
499 784 1 5
499 878 1 18
